{
  "data": [
    {
      "id": 42,
      "active": true,
      "activeMobile": true,
      "activeDesktop": true,
      "content": "Test banner 6",
      "description": null,
      "campaign": null,
      "policy": null,
      "thumb": "https://www.googleapis.com/download/storage/v1/b/tourcdn/o/photos%2FBPJF0359XE_%2Ftmp%2Fplaytemp4064588483083266850%2FmultipartBody660717624017762132asTemporaryFile?generation=1561089506058741&alt=media",
      "action": "promotion_page",
      "title": null,
      "priority": 5
    },
    {
      "id": 41,
      "active": true,
      "activeMobile": true,
      "activeDesktop": true,
      "content": "Test banner 5",
      "description": null,
      "campaign": null,
      "policy": null,
      "thumb": "https://www.googleapis.com/download/storage/v1/b/tourcdn/o/photos%2FAJCO2FM0DD_%2Ftmp%2Fplaytemp1162838664548627288%2FmultipartBody2712639991012830538asTemporaryFile?generation=1555639826193499&alt=media",
      "action": "share_app",
      "title": null,
      "priority": 4
    },
    {
      "id": 40,
      "active": true,
      "activeMobile": true,
      "activeDesktop": true,
      "content": "Test banner 4",
      "description": null,
      "campaign": null,
      "policy": null,
      "thumb": "https://www.googleapis.com/download/storage/v1/b/tourcdn/o/photos%2FGX0DF3TE4C_%2Ftmp%2Fplaytemp3193717978743330183%2FmultipartBody3424111112400825908asTemporaryFile?generation=1555639792018742&alt=media",
      "action": "link",
      "title": null,
      "priority": 3
    },
    {
      "id": 39,
      "active": true,
      "activeMobile": true,
      "activeDesktop": true,
      "content": "Test banner 3",
      "description": null,
      "campaign": null,
      "policy": null,
      "thumb": "https://www.googleapis.com/download/storage/v1/b/tourcdn/o/photos%2FHGODTHVH68_%2Ftmp%2Fplaytemp3193717978743330183%2FmultipartBody1770235572949026560asTemporaryFile?generation=1555639764212265&alt=media",
      "action": "hot_tickets",
      "title": null,
      "priority": 2
    },
    {
      "id": 38,
      "active": true,
      "activeMobile": true,
      "activeDesktop": true,
      "content": "Test banner 2",
      "description": null,
      "campaign": null,
      "policy": null,
      "thumb": "https://www.googleapis.com/download/storage/v1/b/tourcdn/o/photos%2FB31GJRCYF0_%2Ftmp%2Fplaytemp3193717978743330183%2FmultipartBody6340395733099740038asTemporaryFile?generation=1555639748600418&alt=media",
      "action": "hot_tours",
      "title": null,
      "priority": 1
    },
    {
      "id": 37,
      "active": true,
      "activeMobile": true,
      "activeDesktop": true,
      "content": "Test banner 1",
      "description": null,
      "campaign": null,
      "policy": null,
      "thumb": "https://www.googleapis.com/download/storage/v1/b/tourcdn/o/photos%2FRMSS4QBV2I_%2Ftmp%2Fplaytemp3193717978743330183%2FmultipartBody4525272942551312450asTemporaryFile?generation=1555639718876591&alt=media",
      "action": "hot_hotels",
      "title": null,
      "priority": 0
    }
  ],
  "code": 200,
  "message": "success"
}
