<svg width="20" height="21" viewBox="0 0 20 21" fill="none" xmlns="http://www.w3.org/2000/svg">
<path d="M15.2581 8.26439C15.8808 7.64161 16.3479 7.33022 16.815 6.86314C18.839 4.83911 20.8631 1.72522 19.6175 0.479661C18.372 -0.765895 15.4138 1.25813 13.3897 3.28216C12.9226 3.59355 12.6113 4.21633 11.9885 4.83911L3.26958 0.79105C2.33542 0.479661 1.40125 0.479661 0.778472 1.10244L0 1.72522L8.25181 8.88716C6.69486 10.9112 4.82653 12.7795 4.04806 13.8694L2.64681 13.0909C2.02403 12.7795 1.08986 12.7795 0.622778 13.4023L0.311389 13.7137L3.73667 16.3605L6.22778 19.7858L6.53917 19.4744C7.00625 19.0073 7.16195 18.0731 6.85056 17.4504L6.22778 16.0491C7.31764 15.1149 9.18597 13.4023 11.21 11.8454L18.372 20.0972L18.9947 19.4744C19.6175 18.8516 19.7732 17.9174 19.3061 16.9833L15.2581 8.26439Z" fill="#009688"/>
</svg>
