<svg width="24" height="24" viewBox="0 0 24 24" fill="none" xmlns="http://www.w3.org/2000/svg">
<path d="M6 2.5H19C19.2761 2.5 19.5 2.72386 19.5 3V21C19.5 21.2761 19.2761 21.5 19 21.5H6C5.72386 21.5 5.5 21.2761 5.5 21V19C5.5 18.7239 5.72386 18.5 6 18.5H7C7.82843 18.5 8.5 17.8284 8.5 17C8.5 16.1716 7.82843 15.5 7 15.5H6C5.72386 15.5 5.5 15.2761 5.5 15V14C5.5 13.7239 5.72386 13.5 6 13.5H7C7.82843 13.5 8.5 12.8284 8.5 12C8.5 11.1716 7.82843 10.5 7 10.5H6C5.72386 10.5 5.5 10.2761 5.5 10V9C5.5 8.72386 5.72386 8.5 6 8.5H7C7.82843 8.5 8.5 7.82843 8.5 7C8.5 6.17157 7.82843 5.5 7 5.5H6C5.72386 5.5 5.5 5.27614 5.5 5V3C5.5 2.72386 5.72386 2.5 6 2.5Z" stroke="#1976D2"/>
<path d="M4 7H7" stroke="#1976D2" stroke-linecap="round"/>
<path d="M4 12H7" stroke="#1976D2" stroke-linecap="round"/>
<path d="M4 17H7" stroke="#1976D2" stroke-linecap="round"/>
<path d="M12.75 9.22941C12.7868 9.71176 12.9951 9.5 13.0319 9.72353C13.1054 10.0765 13.424 10.3353 13.6324 10.4176C13.7549 10.4647 13.8775 10.5 14 10.5C14.1225 10.5 14.2451 10.4765 14.3676 10.4176C14.576 10.3235 14.8946 10.0765 14.9681 9.72353C15.0049 9.51176 15.2132 9.72353 15.25 9.22941C15.25 9.04118 15.1397 8.98235 15.1397 8.98235C15.1397 8.98235 15.201 8.7 15.2132 8.47647C15.2377 8.20588 15.0417 7.5 14.0123 7.5H14C13.9877 7.5 13.9877 7.5 13.9877 7.5C12.9583 7.5 12.7623 8.20588 12.7868 8.48824C12.8113 8.71176 12.8603 8.99412 12.8603 8.99412C12.8603 8.99412 12.75 9.04118 12.75 9.22941Z" fill="#1976D2"/>
<path d="M16.615 11.67C16.0332 11.4532 15.2078 11.1872 15.1672 11.1773C15.1402 11.1675 15.1131 11.1675 15.0861 11.1675C14.9914 11.1675 14.9102 11.2167 14.8696 11.2759C14.7208 11.532 14.4502 12.0049 14.2743 12.2217L14.2337 11.5911C14.2337 11.5911 14.4907 11.197 14.5178 11.1576C14.5855 11.069 14.5178 11 14.396 11H13.6384C13.5166 11 13.4625 11.069 13.5166 11.1576C13.5436 11.197 13.8007 11.5911 13.8007 11.5911L13.7601 12.2217C13.5842 11.9951 13.3136 11.532 13.1648 11.2759C13.1377 11.2167 13.0566 11.1675 12.9483 11.1675C12.9213 11.1675 12.8942 11.1675 12.8671 11.1773C12.8266 11.1872 11.9877 11.4532 11.4194 11.67C11.1624 11.7685 11 11.8867 11 12.0148V13H16.9938V12.0148C17.0344 11.8867 16.872 11.7685 16.615 11.67Z" fill="#1976D2"/>
</svg>
