<svg width="100" height="83" viewBox="0 0 100 83" fill="none" xmlns="http://www.w3.org/2000/svg">
<path d="M30.542 9.81768C36.3457 6.05906 43.2653 3.87671 50.6946 3.87671C71.1973 3.87671 87.818 20.4974 87.818 41.0001C87.818 41.3548 87.813 41.7084 87.8031 42.0607M20.2253 19.7867C16.0311 25.7998 13.5713 33.1127 13.5713 41.0001C13.5713 61.5027 30.192 78.1234 50.6946 78.1234C66.3248 78.1234 79.6989 68.4638 85.1729 54.7887" stroke="#FF7043" stroke-linecap="round"/>
<path fill-rule="evenodd" clip-rule="evenodd" d="M18.3593 65.8955C18.3593 65.6194 18.1354 65.3955 17.8593 65.3955C17.5831 65.3955 17.3593 65.6194 17.3593 65.8955V68.032H15.1321C14.8559 68.032 14.6321 68.2558 14.6321 68.532C14.6321 68.8081 14.8559 69.032 15.1321 69.032H17.3593V71.2595C17.3593 71.5357 17.5831 71.7595 17.8593 71.7595C18.1354 71.7595 18.3593 71.5357 18.3593 71.2595V69.032H20.4961C20.7722 69.032 20.9961 68.8081 20.9961 68.532C20.9961 68.2558 20.7722 68.032 20.4961 68.032H18.3593V65.8955Z" fill="#57C478"/>
<path fill-rule="evenodd" clip-rule="evenodd" d="M55.4826 12.8618C55.4826 12.5857 55.2587 12.3618 54.9826 12.3618C54.7065 12.3618 54.4826 12.5857 54.4826 12.8618V14.9984H52.2551C51.979 14.9984 51.7551 15.2223 51.7551 15.4984C51.7551 15.7746 51.979 15.9984 52.2551 15.9984H54.4826V18.2258C54.4826 18.502 54.7065 18.7258 54.9826 18.7258C55.2587 18.7258 55.4826 18.502 55.4826 18.2258V15.9984H57.6191C57.8953 15.9984 58.1191 15.7746 58.1191 15.4984C58.1191 15.2223 57.8953 14.9984 57.6191 14.9984H55.4826V12.8618Z" fill="#57C478"/>
<path fill-rule="evenodd" clip-rule="evenodd" d="M65.0287 58.4707C65.0287 58.1946 64.8048 57.9707 64.5287 57.9707C64.2525 57.9707 64.0287 58.1946 64.0287 58.4707V60.6071H61.8015C61.5254 60.6071 61.3015 60.8309 61.3015 61.1071C61.3015 61.3832 61.5254 61.6071 61.8015 61.6071H64.0287V63.8347C64.0287 64.1108 64.2525 64.3347 64.5287 64.3347C64.8048 64.3347 65.0287 64.1108 65.0287 63.8347V61.6071H67.1655C67.4417 61.6071 67.6655 61.3832 67.6655 61.1071C67.6655 60.8309 67.4417 60.6071 67.1655 60.6071H65.0287V58.4707Z" fill="#57C478"/>
<circle cx="24.7083" cy="38.3484" r="2.15167" stroke="#B2DFDB"/>
<circle cx="86.2269" cy="47.8946" r="4.273" stroke="#B2DFDB"/>
<circle cx="23.6478" cy="12.8924" r="4.273" stroke="#B2DFDB"/>
<path d="M44.5097 55.5876L36.174 43.084C35.3945 41.9149 35.6642 40.3404 36.7883 39.4974C38.0043 38.5854 39.7367 38.8821 40.5798 40.1468L44.9837 46.7527C46.1743 48.5386 48.808 48.5106 49.9604 46.6997L61.5742 28.4495C62.0649 27.6784 62.9155 27.2114 63.8295 27.2114C65.9445 27.2114 67.2219 29.5512 66.0782 31.3303L50.5108 55.5462C49.9643 56.3963 49.0231 56.9101 48.0126 56.9101H46.9808C45.9878 56.9101 45.0605 56.4138 44.5097 55.5876Z" fill="#FF7043" stroke="#FF7043" stroke-width="0.742467" stroke-linecap="round" stroke-linejoin="round"/>
</svg>
