<svg width="104" height="12" viewBox="0 0 104 12" fill="none" xmlns="http://www.w3.org/2000/svg">
<path d="M94.0352 10.295H83.3393V7.80514H94.0352V10.295ZM83.3393 3.73207H94.0352V6.15426H83.3393V3.73207ZM93.2326 11.9865C95.1283 11.9865 96 11.2152 96 9.88904V8.72531C96 8.35995 95.8755 8.18403 95.5987 7.95399L94.3811 6.92558L95.5987 5.89716C95.8755 5.66712 96 5.50474 96 5.12585V4.09743C96 2.77131 95.1283 2 93.2326 2H81.416V11.9594H93.2326V11.9865ZM73.3768 10.295H62.6809V7.80514H73.3768V10.295ZM62.6809 3.73207H73.3768V6.15426H62.6809V3.73207ZM72.5742 11.9865C74.4699 11.9865 75.3416 11.2152 75.3416 9.88904V8.72531C75.3416 8.35995 75.2171 8.18403 74.9403 7.95399L73.7227 6.92558L74.9403 5.89716C75.2171 5.66712 75.3416 5.50474 75.3416 5.12585V4.09743C75.3416 2.77131 74.4699 2 72.5742 2H60.7576V11.9594H72.5742V11.9865ZM52.2202 2.0406V10.2138H42.1055V2.0406H40.1822V9.72666C40.1822 11.134 41.0539 12 42.7835 12H51.5284C53.258 12 54.1297 11.134 54.1297 9.72666V2.0406H52.2202ZM21.3918 6.10014V2.0406H19.4684V12H21.3918V7.85927H31.6449V12H33.5682V2.0406H31.6449V6.11367H21.3918V6.10014ZM13.8784 3.81326V2.0406H2.60133C0.871721 2.0406 0 2.90663 0 4.31394V9.71313C0 11.1204 0.871721 11.9865 2.60133 11.9865H13.8784V10.2138H1.96483V3.81326H13.8784Z" fill="#26C0D5"/>
<path d="M103.094 0.119403C103.272 0.19403 103.436 0.298507 103.569 0.432836C103.703 0.567164 103.807 0.731343 103.881 0.910448C103.955 1.08955 104 1.28358 104 1.49254C104 1.70149 103.955 1.89552 103.881 2.08955C103.807 2.26866 103.703 2.43284 103.569 2.56716C103.436 2.70149 103.272 2.80597 103.094 2.8806C102.916 2.95522 102.723 3 102.5 3C102.277 3 102.099 2.95522 101.906 2.8806C101.713 2.80597 101.564 2.70149 101.431 2.56716C101.297 2.43284 101.193 2.26866 101.119 2.08955C101.045 1.91045 101 1.71642 101 1.49254C101 1.28358 101.045 1.08955 101.119 0.910448C101.193 0.731343 101.297 0.567164 101.431 0.432836C101.564 0.298507 101.728 0.19403 101.906 0.119403C102.084 0.0447761 102.277 0 102.5 0C102.723 0 102.916 0.0447761 103.094 0.119403ZM102.01 0.313433C101.861 0.373134 101.728 0.477612 101.609 0.58209C101.49 0.701493 101.416 0.835821 101.342 0.985075C101.282 1.13433 101.252 1.31343 101.252 1.49254C101.252 1.67164 101.282 1.83582 101.342 2C101.401 2.14925 101.49 2.29851 101.609 2.40299C101.728 2.52239 101.847 2.61194 102.01 2.67164C102.173 2.73134 102.337 2.77612 102.515 2.77612C102.693 2.77612 102.856 2.74627 103.02 2.67164C103.168 2.61194 103.302 2.50746 103.421 2.40299C103.54 2.28358 103.614 2.14925 103.688 2C103.748 1.85075 103.777 1.67164 103.777 1.49254C103.777 1.31343 103.748 1.14925 103.688 0.985075C103.629 0.835821 103.54 0.686567 103.421 0.58209C103.302 0.462687 103.183 0.373134 103.02 0.313433C102.871 0.253731 102.693 0.208955 102.515 0.208955C102.337 0.208955 102.158 0.253731 102.01 0.313433ZM101.965 2.35821V0.626866H102.619C102.812 0.626866 102.96 0.671642 103.05 0.746269C103.139 0.820895 103.183 0.940298 103.183 1.10448C103.183 1.1791 103.168 1.23881 103.153 1.29851C103.124 1.35821 103.094 1.40298 103.064 1.44776C103.02 1.49254 102.975 1.52239 102.931 1.53731C102.886 1.55224 102.827 1.58209 102.767 1.58209L103.287 2.35821H103.035L102.545 1.58209H102.188V2.35821H101.965ZM102.649 1.40298C102.708 1.40298 102.767 1.38806 102.812 1.37313C102.856 1.35821 102.901 1.32836 102.931 1.28358C102.96 1.23881 102.975 1.1791 102.975 1.1194C102.975 1.0597 102.96 1.01493 102.946 0.970149C102.916 0.925373 102.886 0.895522 102.856 0.880597C102.812 0.850746 102.767 0.835821 102.723 0.835821C102.678 0.835821 102.619 0.820895 102.574 0.820895H102.188V1.41791H102.47C102.53 1.41791 102.589 1.41791 102.649 1.40298Z" fill="#26C0D5"/>
</svg>
