<svg width="25" height="24" viewBox="0 0 25 24" fill="none" xmlns="http://www.w3.org/2000/svg">
<path d="M11.2073 5.89648H7.06445C6.51217 5.89648 6.06445 6.3442 6.06445 6.89648V16.8965C6.06445 17.4488 6.51217 17.8965 7.06445 17.8965H17.0645C17.6167 17.8965 18.0645 17.4488 18.0645 16.8965V12.7536" stroke="#757575" stroke-linecap="round"/>
<path d="M14.0645 4.89648H19.0645V9.89648" stroke="#757575" stroke-linecap="round" stroke-linejoin="round"/>
<line x1="18.5906" y1="5.60311" x2="12.7711" y2="11.8703" stroke="#757575" stroke-linecap="round" stroke-linejoin="round"/>
</svg>
