<svg width="24" height="24" viewBox="0 0 24 24" fill="none" xmlns="http://www.w3.org/2000/svg">
<path d="M2 7V4C2 3.33333 2.4 2 4 2H7" stroke="white" stroke-linecap="round"/>
<path d="M22 7V4C22 3.33333 21.6 2 20 2H17" stroke="white" stroke-linecap="round"/>
<path d="M2 17V20C2 20.6667 2.4 22 4 22H7" stroke="white" stroke-linecap="round"/>
<path d="M22 17V20C22 20.6667 21.6 22 20 22H17" stroke="white" stroke-linecap="round"/>
<path d="M17.3624 9.94878C16.6031 10.4068 16.1635 11.3863 16.6422 12.3094C17.0076 13.1501 17.9239 13.5611 18.7854 13.3379L19.3098 14.5869C19.3691 14.7281 19.2991 14.9247 19.1277 14.9967L8.6656 19.3894C8.4942 19.4614 8.3048 19.3737 8.2455 19.2324L7.69268 17.9158C8.46172 17.4532 8.80937 16.4992 8.45031 15.644C8.09125 14.7888 7.16676 14.3689 6.29796 14.594L5.77356 13.345C5.71426 13.2038 5.7843 13.0072 5.9557 12.9352L16.4178 8.54253C16.5892 8.47057 16.7786 8.55824 16.8379 8.69947L17.3624 9.94878Z" stroke="white" stroke-linecap="round" stroke-linejoin="round"/>
<path d="M13.1985 4.77195C13.2385 4.79535 13.2944 4.88304 13.2465 4.96485C13.007 5.37393 13.1111 5.92923 13.5746 6.14565C13.9741 6.37958 14.4853 6.23947 14.7249 5.83039C14.7488 5.78949 14.8367 5.73107 14.9166 5.77785L15.7956 6.2925C16.0353 6.43285 16.1153 6.75436 15.9716 6.9998L8 10.627L11.6166 4.44996C11.7603 4.20452 12.0798 4.11695 12.3195 4.25731L13.1985 4.77195Z" fill="white"/>
<path d="M13 10.5L15.5 16" stroke="white" stroke-linecap="round"/>
</svg>
