<svg width="24" height="24" viewBox="0 0 24 24" fill="none" xmlns="http://www.w3.org/2000/svg">
<path d="M9.49306 12.2975L3.82406 9.63277L4.1425 9.72206L4.68832 9.8751L4.6902 9.86253L5.36929 10.0451L4.75469 9.43046L4.77201 9.31444L5.35663 5.39785C5.35696 5.39611 5.35728 5.3944 5.35761 5.39273L5.93283 5.5519L6.97047 9.26024L7.04643 9.53171L7.31802 9.60723L17.0124 12.3029C17.8963 12.5493 18.3664 12.7146 18.6497 12.8506C18.9016 12.9714 18.9994 13.0647 19.1339 13.2071C19.234 13.318 19.3568 13.4521 19.6012 13.6117C20.1612 13.9861 20.4594 14.2986 20.5937 14.5493L20.5937 14.5493L20.5976 14.5565C20.6614 14.6709 20.679 14.7566 20.6826 14.8131C20.6863 14.8708 20.6764 14.9145 20.666 14.9442L20.666 14.9442C20.6608 14.9589 20.6248 15.0467 20.4546 15.113C20.2483 15.1932 19.7973 15.2599 18.9057 15.0272L13.9828 13.6648L13.9012 13.6422L13.8166 13.6477L13.8495 14.1466L13.8166 13.6477L13.8164 13.6477L13.8156 13.6478L13.8127 13.648L13.8012 13.6487L13.7561 13.6517L13.5847 13.663L12.9724 13.7031C12.4651 13.7362 11.7876 13.7803 11.1069 13.8241C10.426 13.8679 9.74226 13.9114 9.22223 13.9433C8.96208 13.9592 8.74369 13.9722 8.58735 13.9809C8.50898 13.9853 8.44752 13.9885 8.40465 13.9905C8.40195 13.9906 8.39935 13.9907 8.39685 13.9908C8.39225 13.9897 8.38711 13.9884 8.3814 13.9869C8.33967 13.9763 8.28337 13.9615 8.21631 13.9434C8.0826 13.9074 7.9127 13.8604 7.74474 13.8136C7.67476 13.794 7.60531 13.7746 7.53921 13.756L9.415 13.2315L10.7099 12.8695L9.49306 12.2975ZM8.3487 13.9925C8.34882 13.9925 8.35066 13.9924 8.35382 13.9924C8.35016 13.9925 8.34859 13.9925 8.3487 13.9925Z" fill="#757575" stroke="#757575"/>
<line x1="2.5" y1="18.5" x2="21.5" y2="18.5" stroke="#757575" stroke-linecap="round" stroke-linejoin="round"/>
</svg>
