<svg width="24" height="24" viewBox="0 0 24 24" fill="none" xmlns="http://www.w3.org/2000/svg">
<path d="M3.79248 8.5C3.79248 7.94772 4.2402 7.5 4.79248 7.5H18.7925C19.3448 7.5 19.7925 7.94772 19.7925 8.5V9.5C19.7925 10.0523 19.3448 10.5 18.7925 10.5H4.79248C4.2402 10.5 3.79248 10.0523 3.79248 9.5V8.5Z" fill="#CC0066"/>
<path d="M8.79248 9.59931L8.43893 9.95287L8.58537 10.0993L8.79248 10.0993L8.79248 9.59931ZM7.29248 8.09931L6.93893 8.45287V8.45287L7.29248 8.09931ZM12.2925 9.5993L12.2925 10.0993L12.6829 10.0993L12.7776 9.72057L12.2925 9.5993ZM15.3708 9.59931L15.3708 10.0993L15.578 10.0993L15.7244 9.95287L15.3708 9.59931ZM16.8708 8.09931L17.2244 8.45287V8.45287L16.8708 8.09931ZM11.8708 9.5993L11.3858 9.72057L11.4805 10.0993L11.8708 10.0993L11.8708 9.5993ZM18.2925 10.5C18.2925 10.2239 18.0686 10 17.7925 10C17.5163 10 17.2925 10.2239 17.2925 10.5H18.2925ZM6.29248 10.5C6.29248 10.2239 6.06862 10 5.79248 10C5.51634 10 5.29248 10.2239 5.29248 10.5H6.29248ZM9.14603 9.24576L7.64603 7.74576L6.93893 8.45287L8.43893 9.95287L9.14603 9.24576ZM7.64603 7.74576C7.57504 7.67476 7.29248 7.26942 7.29248 6.59931H6.29248C6.29248 7.52921 6.67659 8.19053 6.93893 8.45287L7.64603 7.74576ZM7.29248 6.59931C7.29248 6.24059 7.48349 5.74041 7.83353 5.39037C8.16182 5.06208 8.59494 4.89385 9.13437 5.07366L9.45059 4.12497C8.49002 3.80478 7.67314 4.13655 7.12643 4.68326C6.60147 5.20822 6.29248 5.95804 6.29248 6.59931H7.29248ZM9.13437 5.07366C9.7434 5.27667 10.5386 5.93231 11.1265 6.81416C11.7138 7.6952 12.0088 8.67233 11.8074 9.47804L12.7776 9.72057C13.0761 8.52628 12.6211 7.25341 11.9585 6.25946C11.2964 5.26632 10.3416 4.42196 9.45059 4.12497L9.13437 5.07366ZM12.2925 9.0993L8.79248 9.09931L8.79248 10.0993L12.2925 10.0993L12.2925 9.0993ZM15.7244 9.95287L17.2244 8.45287L16.5173 7.74576L15.0173 9.24576L15.7244 9.95287ZM17.2244 8.45287C17.4867 8.19053 17.8708 7.52921 17.8708 6.59931H16.8708C16.8708 7.26942 16.5883 7.67476 16.5173 7.74576L17.2244 8.45287ZM17.8708 6.59931C17.8708 5.95804 17.5619 5.20822 17.0369 4.68326C16.4902 4.13655 15.6733 3.80478 14.7127 4.12497L15.029 5.07366C15.5684 4.89385 16.0015 5.06208 16.3298 5.39037C16.6798 5.74041 16.8708 6.24059 16.8708 6.59931H17.8708ZM14.7127 4.12497C13.8218 4.42196 12.8669 5.26632 12.2048 6.25946C11.5422 7.25341 11.0872 8.52628 11.3858 9.72057L12.3559 9.47804C12.1545 8.67233 12.4495 7.6952 13.0369 6.81416C13.6248 5.93231 14.4199 5.27667 15.029 5.07366L14.7127 4.12497ZM11.8708 10.0993L15.3708 10.0993L15.3709 9.09931L11.8709 9.0993L11.8708 10.0993ZM17.2925 10.5V15H18.2925V10.5H17.2925ZM17.2925 15V18.5H18.2925V15H17.2925ZM16.7925 19H11.7925V20H16.7925V19ZM11.7925 19H6.79248V20H11.7925V19ZM6.29248 18.5V15H5.29248V18.5H6.29248ZM6.29248 15V10.5H5.29248V15H6.29248ZM6.79248 19C6.51634 19 6.29248 18.7761 6.29248 18.5H5.29248C5.29248 19.3284 5.96405 20 6.79248 20V19ZM17.2925 18.5C17.2925 18.7761 17.0686 19 16.7925 19V20C17.6209 20 18.2925 19.3284 18.2925 18.5H17.2925ZM11.2925 10.5V15H12.2925V10.5H11.2925ZM11.2925 15V19.5H12.2925V15H11.2925ZM5.79248 15.5H11.7925V14.5H5.79248V15.5ZM11.7925 15.5L17.7925 15.5V14.5L11.7925 14.5V15.5Z" fill="#CC0066"/>
</svg>
