<svg width="80" height="80" viewBox="0 0 80 80" fill="none" xmlns="http://www.w3.org/2000/svg">
<rect width="80" height="80" fill="white"/>
<path d="M28.0435 55C27.6179 55 27.4051 55.3192 27.4051 55.6384V57.3409C27.4051 57.7666 27.7243 57.9794 28.0435 57.9794C28.4692 57.9794 28.682 57.6601 28.682 57.3409V55.6384C28.682 55.3192 28.4692 55 28.0435 55Z" fill="#4FC3F7"/>
<path d="M28.0435 60.001C27.6179 60.001 27.4051 60.3203 27.4051 60.6395V62.342C27.4051 62.7676 27.7243 62.9804 28.0435 62.9804C28.4692 62.9804 28.682 62.6612 28.682 62.342V60.6395C28.682 60.3203 28.4692 60.001 28.0435 60.001Z" fill="#4FC3F7"/>
<path d="M26.3409 58.2986H24.6384C24.2127 58.2986 23.9999 58.6178 23.9999 58.937C23.9999 59.3626 24.3192 59.5754 24.6384 59.5754H26.3409C26.7665 59.5754 26.9793 59.2562 26.9793 58.937C27.0857 58.6178 26.7665 58.2986 26.3409 58.2986Z" fill="#4FC3F7"/>
<path d="M31.3422 58.2986H29.6397C29.214 58.2986 29.0012 58.6178 29.0012 58.937C29.0012 59.3626 29.3204 59.5754 29.6397 59.5754H31.3422C31.7678 59.5754 31.9806 59.2562 31.9806 58.937C32.087 58.6178 31.7678 58.2986 31.3422 58.2986Z" fill="#4FC3F7"/>
<path d="M17.0435 16C16.6179 16 16.4051 16.3192 16.4051 16.6384V18.3409C16.4051 18.7666 16.7243 18.9794 17.0435 18.9794C17.4692 18.9794 17.682 18.6601 17.682 18.3409V16.6384C17.682 16.3192 17.4692 16 17.0435 16Z" fill="#4FC3F7"/>
<path d="M17.0435 21.001C16.6179 21.001 16.4051 21.3203 16.4051 21.6395V23.342C16.4051 23.7676 16.7243 23.9804 17.0435 23.9804C17.4692 23.9804 17.682 23.6612 17.682 23.342V21.6395C17.682 21.3203 17.4692 21.001 17.0435 21.001Z" fill="#4FC3F7"/>
<path d="M15.3409 19.2986H13.6384C13.2127 19.2986 12.9999 19.6178 12.9999 19.937C12.9999 20.3626 13.3192 20.5754 13.6384 20.5754H15.3409C15.7665 20.5754 15.9793 20.2562 15.9793 19.937C16.0857 19.6178 15.7665 19.2986 15.3409 19.2986Z" fill="#4FC3F7"/>
<path d="M20.3422 19.2986H18.6397C18.214 19.2986 18.0012 19.6178 18.0012 19.937C18.0012 20.3626 18.3204 20.5754 18.6397 20.5754H20.3422C20.7678 20.5754 20.9806 20.2562 20.9806 19.937C21.087 19.6178 20.7678 19.2986 20.3422 19.2986Z" fill="#4FC3F7"/>
<path d="M61.0435 33C60.6179 33 60.4051 33.3192 60.4051 33.6384V35.3409C60.4051 35.7666 60.7243 35.9794 61.0435 35.9794C61.4692 35.9794 61.682 35.6601 61.682 35.3409V33.6384C61.682 33.3192 61.4692 33 61.0435 33Z" fill="#4FC3F7"/>
<path d="M61.0435 38.001C60.6179 38.001 60.4051 38.3203 60.4051 38.6395V40.342C60.4051 40.7676 60.7243 40.9804 61.0435 40.9804C61.4692 40.9804 61.682 40.6612 61.682 40.342V38.6395C61.682 38.3203 61.4692 38.001 61.0435 38.001Z" fill="#4FC3F7"/>
<path d="M59.3409 36.2986H57.6384C57.2127 36.2986 56.9999 36.6178 56.9999 36.937C56.9999 37.3626 57.3192 37.5754 57.6384 37.5754H59.3409C59.7665 37.5754 59.9793 37.2562 59.9793 36.937C60.0857 36.6178 59.7665 36.2986 59.3409 36.2986Z" fill="#4FC3F7"/>
<path d="M64.3422 36.2986H62.6397C62.214 36.2986 62.0012 36.6178 62.0012 36.937C62.0012 37.3626 62.3204 37.5754 62.6397 37.5754H64.3422C64.7678 37.5754 64.9806 37.2562 64.9806 36.937C65.087 36.6178 64.7678 36.2986 64.3422 36.2986Z" fill="#4FC3F7"/>
<path d="M49.0435 3C48.6179 3 48.4051 3.31922 48.4051 3.63843V5.34093C48.4051 5.76655 48.7243 5.97937 49.0435 5.97937C49.4692 5.97937 49.682 5.66015 49.682 5.34093V3.63843C49.682 3.31922 49.4692 3 49.0435 3Z" fill="#4FC3F7"/>
<path d="M49.0435 8.00104C48.6179 8.00104 48.4051 8.32026 48.4051 8.63947V10.342C48.4051 10.7676 48.7243 10.9804 49.0435 10.9804C49.4692 10.9804 49.682 10.6612 49.682 10.342V8.63947C49.682 8.32026 49.4692 8.00104 49.0435 8.00104Z" fill="#4FC3F7"/>
<path d="M47.3409 6.29855H45.6384C45.2127 6.29855 44.9999 6.61777 44.9999 6.93699C44.9999 7.36261 45.3192 7.57543 45.6384 7.57543H47.3409C47.7665 7.57543 47.9793 7.25621 47.9793 6.93699C48.0857 6.61777 47.7665 6.29855 47.3409 6.29855Z" fill="#4FC3F7"/>
<path d="M52.3422 6.29855H50.6397C50.214 6.29855 50.0012 6.61777 50.0012 6.93699C50.0012 7.36261 50.3204 7.57543 50.6397 7.57543H52.3422C52.7678 7.57543 52.9806 7.25621 52.9806 6.93699C53.087 6.61777 52.7678 6.29855 52.3422 6.29855Z" fill="#4FC3F7"/>
<path d="M38 71V62M38 20V30.75M38 41.5L43.5 36M38 41.5V30.75M38 41.5V52.5M50 29.5L43.5 36M38 62L42 58M38 62V52.5M49.5 50.5L45.75 54.25M42 58V52.5M42 58L45.75 54.25M45.75 54.25L49 55M43.5 36V31M38 30.75L33 25M38 52.5L33 47.5M22.5 37L28.5 43M33 47.5V42.5M33 47.5L28.5 43M28.5 43H24.5" stroke="#009688"/>
<path d="M27 71H43.5M40 73H51M35 73H29.5" stroke="#009688" stroke-linecap="round"/>
<circle cx="52" cy="27" r="3.5" stroke="#009688"/>
<path d="M53 26C53 25.4477 52.5523 25 52 25C51.4477 25 51 25.4477 51 26C51 26.5523 51.4477 27 52 27" stroke="#009688" stroke-linecap="round"/>
<path d="M52 27C52.5523 27 53 27.4477 53 28C53 28.5523 52.5523 29 52 29C51.4477 29 51 28.5523 51 28" stroke="#009688" stroke-linecap="round"/>
<path d="M52 25V24.25" stroke="#009688" stroke-linecap="round"/>
<path d="M52 29.75V29" stroke="#009688" stroke-linecap="round"/>
<circle cx="38" cy="17" r="3.5" stroke="#009688"/>
<path d="M39 16C39 15.4477 38.5523 15 38 15C37.4477 15 37 15.4477 37 16C37 16.5523 37.4477 17 38 17" stroke="#009688" stroke-linecap="round"/>
<path d="M38 17C38.5523 17 39 17.4477 39 18C39 18.5523 38.5523 19 38 19C37.4477 19 37 18.5523 37 18" stroke="#009688" stroke-linecap="round"/>
<path d="M38 15V14.25" stroke="#009688" stroke-linecap="round"/>
<path d="M38 19.75V19" stroke="#009688" stroke-linecap="round"/>
<circle cx="20" cy="35" r="3.5" stroke="#009688"/>
<path d="M21 34C21 33.4477 20.5523 33 20 33C19.4477 33 19 33.4477 19 34C19 34.5523 19.4477 35 20 35" stroke="#009688" stroke-linecap="round"/>
<path d="M20 35C20.5523 35 21 35.4477 21 36C21 36.5523 20.5523 37 20 37C19.4477 37 19 36.5523 19 36" stroke="#009688" stroke-linecap="round"/>
<path d="M20 33V32.25" stroke="#009688" stroke-linecap="round"/>
<path d="M20 37.75V37" stroke="#009688" stroke-linecap="round"/>
<circle cx="52" cy="48" r="3.5" stroke="#009688"/>
<path d="M53 47C53 46.4477 52.5523 46 52 46C51.4477 46 51 46.4477 51 47C51 47.5523 51.4477 48 52 48" stroke="#009688" stroke-linecap="round"/>
<path d="M52 48C52.5523 48 53 48.4477 53 49C53 49.5523 52.5523 50 52 50C51.4477 50 51 49.5523 51 49" stroke="#009688" stroke-linecap="round"/>
<path d="M52 46V45.25" stroke="#009688" stroke-linecap="round"/>
<path d="M52 50.75V50" stroke="#009688" stroke-linecap="round"/>
<circle cx="32" cy="24" r="2" fill="#009688"/>
<circle cx="43.5" cy="29.5" r="1.5" fill="#009688"/>
<circle cx="33" cy="41" r="2" fill="#009688"/>
<circle cx="23" cy="43" r="2" fill="#009688"/>
<circle cx="42" cy="51" r="2" fill="#009688"/>
<circle cx="50" cy="55" r="2" fill="#009688"/>
</svg>
