<svg width="40" height="40" viewBox="0 0 40 40" fill="none" xmlns="http://www.w3.org/2000/svg">
<circle cx="19.9365" cy="14.8282" r="3.33333" fill="white"/>
<path d="M19.9366 32.3883C19.9334 32.3844 19.9301 32.3806 19.9269 32.3767C19.679 32.079 19.3241 31.6449 18.8978 31.101C18.0448 30.0128 16.9081 28.4882 15.7724 26.7414C14.6358 24.9934 13.5059 23.0316 12.6615 21.0685C11.8146 19.0995 11.2699 17.1631 11.2699 15.4566C11.2699 10.716 15.0597 6.99487 19.9366 6.99487C24.8134 6.99487 28.6032 10.716 28.6032 15.4566C28.6032 17.1631 28.0586 19.0995 27.2116 21.0685C26.3672 23.0316 25.2373 24.9934 24.1007 26.7414C22.965 28.4882 21.8284 30.0128 20.9753 31.101C20.549 31.6449 20.1941 32.079 19.9462 32.3767C19.943 32.3806 19.9398 32.3844 19.9366 32.3883Z" stroke="white"/>
</svg>
