<svg width="80" height="80" viewBox="0 0 80 80" fill="none" xmlns="http://www.w3.org/2000/svg">
<rect width="80" height="80" fill="white"/>
<path d="M17.0436 28C16.6179 28 16.4051 28.3192 16.4051 28.6384V30.3409C16.4051 30.7666 16.7243 30.9794 17.0436 30.9794C17.4692 30.9794 17.682 30.6601 17.682 30.3409V28.6384C17.682 28.3192 17.4692 28 17.0436 28Z" fill="#4FC3F7"/>
<path d="M17.0436 33.001C16.6179 33.001 16.4051 33.3203 16.4051 33.6395V35.342C16.4051 35.7676 16.7243 35.9804 17.0436 35.9804C17.4692 35.9804 17.682 35.6612 17.682 35.342V33.6395C17.682 33.3203 17.4692 33.001 17.0436 33.001Z" fill="#4FC3F7"/>
<path d="M15.3408 31.2985H13.6383C13.2127 31.2985 12.9999 31.6177 12.9999 31.937C12.9999 32.3626 13.3191 32.5754 13.6383 32.5754H15.3408C15.7665 32.5754 15.9793 32.2562 15.9793 31.937C16.0857 31.6177 15.7665 31.2985 15.3408 31.2985Z" fill="#4FC3F7"/>
<path d="M20.3421 31.2985H18.6396C18.214 31.2985 18.0012 31.6177 18.0012 31.937C18.0012 32.3626 18.3204 32.5754 18.6396 32.5754H20.3421C20.7677 32.5754 20.9806 32.2562 20.9806 31.937C21.087 31.6177 20.7677 31.2985 20.3421 31.2985Z" fill="#4FC3F7"/>
<path d="M38.0436 10C37.6179 10 37.4051 10.3192 37.4051 10.6384V12.3409C37.4051 12.7666 37.7243 12.9794 38.0436 12.9794C38.4692 12.9794 38.682 12.6601 38.682 12.3409V10.6384C38.682 10.3192 38.4692 10 38.0436 10Z" fill="#4FC3F7"/>
<path d="M38.0436 15.001C37.6179 15.001 37.4051 15.3203 37.4051 15.6395V17.342C37.4051 17.7676 37.7243 17.9804 38.0436 17.9804C38.4692 17.9804 38.682 17.6612 38.682 17.342V15.6395C38.682 15.3203 38.4692 15.001 38.0436 15.001Z" fill="#4FC3F7"/>
<path d="M36.3408 13.2986H34.6383C34.2127 13.2986 33.9999 13.6178 33.9999 13.937C33.9999 14.3626 34.3191 14.5754 34.6383 14.5754H36.3408C36.7665 14.5754 36.9793 14.2562 36.9793 13.937C37.0857 13.6178 36.7665 13.2986 36.3408 13.2986Z" fill="#4FC3F7"/>
<path d="M41.3421 13.2986H39.6396C39.214 13.2986 39.0012 13.6178 39.0012 13.937C39.0012 14.3626 39.3204 14.5754 39.6396 14.5754H41.3421C41.7677 14.5754 41.9806 14.2562 41.9806 13.937C42.087 13.6178 41.7677 13.2986 41.3421 13.2986Z" fill="#4FC3F7"/>
<circle cx="9.5" cy="10.5" r="3" stroke="#4FC3F7"/>
<path d="M63 44V71H48V44" stroke="#009688" stroke-linecap="round" stroke-linejoin="round"/>
<circle cx="56" cy="33" r="13" stroke="#009688" stroke-width="2" stroke-linecap="round" stroke-linejoin="round"/>
<path d="M27 42H18V49H11V55M27 71H11V66M11 55H27M11 55V61M11 61H27M11 61V66M11 66H27" stroke="#009688" stroke-linecap="round" stroke-linejoin="round"/>
<path d="M32 33V37M37 33V37M32 42V46M32 51V55M32 60V64M37 42V46M37 51V55M37 60V64M42 42V46M42 51V55M42 60V64" stroke="#009688" stroke-linecap="round" stroke-linejoin="round"/>
<path d="M51 49H54M57 49H60M51 54H54M51 59H54M51 64H54M57 54H60M57 59H60M57 64H60" stroke="#009688" stroke-linecap="round" stroke-linejoin="round"/>
<path d="M48 71H27V23H47.5" stroke="#009688" stroke-linecap="round" stroke-linejoin="round"/>
<path d="M62.6651 31.282C62.4607 30.646 61.3366 30.487 60.1614 30.328C59.4972 30.222 58.7819 30.116 58.5775 29.957C58.3731 29.798 58.0665 29.109 57.7599 28.473C57.3001 27.36 56.7891 26.3 56.1249 26.3C55.4607 26.3 55.0008 27.36 54.4898 28.473C54.2344 29.056 53.8767 29.745 53.6723 29.904C53.4679 30.116 52.7015 30.169 52.0884 30.275C50.9132 30.434 49.7891 30.54 49.5847 31.229C49.3803 31.865 50.1978 32.6599 51.0664 33.5079C51.5263 33.9849 52.0884 34.5149 52.1395 34.7799C52.2416 35.0449 52.0884 35.7869 51.9351 36.4759C51.7307 37.6948 51.4752 38.8078 52.0373 39.2318C52.1905 39.3378 52.3438 39.3908 52.4971 39.3908C53.0592 39.3908 53.8256 38.9668 54.592 38.5428C55.1541 38.2248 55.8183 37.8538 56.0738 37.8538C56.3293 37.8538 56.9935 38.2248 57.5556 38.5428C58.322 38.9668 59.1395 39.4438 59.6505 39.4438C59.8038 39.4438 59.957 39.3908 60.0592 39.2848C60.6213 38.8608 60.4169 37.7478 60.1614 36.5289C60.0592 35.8929 59.906 35.0979 60.0081 34.8329C60.1103 34.5679 60.6213 34.0379 61.1322 33.5609C62.052 32.7129 62.8695 31.918 62.6651 31.282Z" fill="#009688"/>
</svg>
