<svg width="18" height="34" viewBox="0 0 18 34" fill="none" xmlns="http://www.w3.org/2000/svg">
<path d="M0.999995 0.666656L17.3333 17L0.999995 33.3333" stroke="white" stroke-linecap="round" stroke-linejoin="round"/>
</svg>
