<svg width="24" height="24" viewBox="0 0 24 24" fill="none" xmlns="http://www.w3.org/2000/svg">
<mask id="path-1-inside-1" fill="white">
<path fill-rule="evenodd" clip-rule="evenodd" d="M1 7C1 5.90065 1.87868 5 2.95122 5H10.5415V6H2.95122C2.40229 6 1.97561 6.43735 1.97561 7C1.97561 7.56265 2.40229 8 2.95122 8H8.16435H15.3902H17.0976V6H15.3122V5H17.5854C17.8408 5.00002 18.0731 5.2382 18.0732 5.5V8H19.2927C20.2301 8 21 8.78915 21 9.75V21.25C21 22.2108 20.2301 23 19.2927 23H2.70732C1.7699 23 1 22.2108 1 21.25V7ZM2.95122 9C2.59649 9 2.26315 8.8982 1.97561 8.72655V21.25C1.97561 21.6741 2.29351 22 2.70732 22H19.2927C19.7065 22 20.0244 21.6741 20.0244 21.25V18.25H12.9512C12.284 18.25 11.7317 17.6839 11.7317 17V14C11.7317 13.3161 12.284 12.75 12.9512 12.75H20.0244V9.75C20.0244 9.32585 19.7065 9 19.2927 9C17.792 9 16.1495 8.99949 14.4306 8.99897C10.7409 8.99783 6.69892 8.99659 2.95122 9ZM20.0244 13.75H12.9512C12.8077 13.7497 12.7073 13.8528 12.7073 14V17C12.7073 17.1472 12.8077 17.25 12.9512 17.25H20.0244V13.75ZM14.4146 15.5C14.4146 14.9477 14.8514 14.5 15.3902 14.5C15.929 14.5 16.3659 14.9477 16.3659 15.5C16.3659 16.0523 15.929 16.5 15.3902 16.5C14.8514 16.5 14.4146 16.0523 14.4146 15.5Z"/>
</mask>
<path fill-rule="evenodd" clip-rule="evenodd" d="M1 7C1 5.90065 1.87868 5 2.95122 5H10.5415V6H2.95122C2.40229 6 1.97561 6.43735 1.97561 7C1.97561 7.56265 2.40229 8 2.95122 8H8.16435H15.3902H17.0976V6H15.3122V5H17.5854C17.8408 5.00002 18.0731 5.2382 18.0732 5.5V8H19.2927C20.2301 8 21 8.78915 21 9.75V21.25C21 22.2108 20.2301 23 19.2927 23H2.70732C1.7699 23 1 22.2108 1 21.25V7ZM2.95122 9C2.59649 9 2.26315 8.8982 1.97561 8.72655V21.25C1.97561 21.6741 2.29351 22 2.70732 22H19.2927C19.7065 22 20.0244 21.6741 20.0244 21.25V18.25H12.9512C12.284 18.25 11.7317 17.6839 11.7317 17V14C11.7317 13.3161 12.284 12.75 12.9512 12.75H20.0244V9.75C20.0244 9.32585 19.7065 9 19.2927 9C17.792 9 16.1495 8.99949 14.4306 8.99897C10.7409 8.99783 6.69892 8.99659 2.95122 9ZM20.0244 13.75H12.9512C12.8077 13.7497 12.7073 13.8528 12.7073 14V17C12.7073 17.1472 12.8077 17.25 12.9512 17.25H20.0244V13.75ZM14.4146 15.5C14.4146 14.9477 14.8514 14.5 15.3902 14.5C15.929 14.5 16.3659 14.9477 16.3659 15.5C16.3659 16.0523 15.929 16.5 15.3902 16.5C14.8514 16.5 14.4146 16.0523 14.4146 15.5Z" fill="#57C478"/>
<path d="M10.5415 5H10.7971V4.74438H10.5415V5ZM10.5415 6V6.25562H10.7971V6H10.5415ZM17.0976 8V8.25562H17.3532V8H17.0976ZM17.0976 6H17.3532V5.74438H17.0976V6ZM15.3122 6H15.0566V6.25562H15.3122V6ZM15.3122 5V4.74438H15.0566V5H15.3122ZM17.5854 5L17.5854 4.74438H17.5854V5ZM18.0732 5.5H18.3288V5.49998L18.0732 5.5ZM18.0732 8H17.8175V8.25562H18.0732V8ZM1.97561 8.72655L2.10664 8.50706L1.71999 8.27624V8.72655H1.97561ZM2.95122 9V9.25562H2.95145L2.95122 9ZM20.0244 18.25H20.28V17.9944H20.0244V18.25ZM20.0244 12.75V13.0056H20.28V12.75H20.0244ZM14.4306 8.99897L14.4306 8.74334L14.4306 8.99897ZM12.9512 13.75L12.9507 14.0056H12.9512V13.75ZM20.0244 13.75H20.28V13.4944H20.0244V13.75ZM20.0244 17.25V17.5056H20.28V17.25H20.0244ZM2.95122 4.74438C1.73159 4.74438 0.744378 5.76546 0.744378 7H1.25562C1.25562 6.03584 2.02577 5.25562 2.95122 5.25562V4.74438ZM10.5415 4.74438H2.95122V5.25562H10.5415V4.74438ZM10.7971 6V5H10.2859V6H10.7971ZM2.95122 6.25562H10.5415V5.74438H2.95122V6.25562ZM2.23123 7C2.23123 6.57254 2.54938 6.25562 2.95122 6.25562V5.74438C2.2552 5.74438 1.71999 6.30216 1.71999 7H2.23123ZM2.95122 7.74438C2.54938 7.74438 2.23123 7.42746 2.23123 7H1.71999C1.71999 7.69784 2.2552 8.25562 2.95122 8.25562V7.74438ZM8.16435 7.74438H2.95122V8.25562H8.16435V7.74438ZM15.3902 7.74438H8.16435V8.25562H15.3902V7.74438ZM17.0976 7.74438H15.3902V8.25562H17.0976V7.74438ZM16.8419 6V8H17.3532V6H16.8419ZM15.3122 6.25562H17.0976V5.74438H15.3122V6.25562ZM15.0566 5V6H15.5679V5H15.0566ZM17.5854 4.74438H15.3122V5.25562H17.5854V4.74438ZM18.3288 5.49998C18.3288 5.103 17.9879 4.74442 17.5854 4.74438L17.5853 5.25562C17.6937 5.25563 17.8175 5.3734 17.8175 5.50002L18.3288 5.49998ZM18.3288 8V5.5H17.8175V8H18.3288ZM19.2927 7.74438H18.0732V8.25562H19.2927V7.74438ZM21.2556 9.75C21.2556 8.65396 20.3772 7.74438 19.2927 7.74438V8.25562C20.083 8.25562 20.7444 8.92434 20.7444 9.75H21.2556ZM21.2556 21.25V9.75H20.7444V21.25H21.2556ZM19.2927 23.2556C20.3772 23.2556 21.2556 22.346 21.2556 21.25H20.7444C20.7444 22.0757 20.083 22.7444 19.2927 22.7444V23.2556ZM2.70732 23.2556H19.2927V22.7444H2.70732V23.2556ZM0.744378 21.25C0.744378 22.346 1.62281 23.2556 2.70732 23.2556V22.7444C1.91699 22.7444 1.25562 22.0757 1.25562 21.25H0.744378ZM0.744378 7V21.25H1.25562V7H0.744378ZM1.84458 8.94603C2.16861 9.13947 2.54685 9.25562 2.95122 9.25562V8.74438C2.64613 8.74438 2.35768 8.65693 2.10664 8.50706L1.84458 8.94603ZM2.23123 21.25V8.72655H1.71999V21.25H2.23123ZM2.70732 21.7444C2.4406 21.7444 2.23123 21.539 2.23123 21.25H1.71999C1.71999 21.8093 2.14642 22.2556 2.70732 22.2556V21.7444ZM19.2927 21.7444H2.70732V22.2556H19.2927V21.7444ZM19.7688 21.25C19.7688 21.539 19.5594 21.7444 19.2927 21.7444V22.2556C19.8536 22.2556 20.28 21.8093 20.28 21.25H19.7688ZM19.7688 18.25V21.25H20.28V18.25H19.7688ZM12.9512 18.5056H20.0244V17.9944H12.9512V18.5056ZM11.4761 17C11.4761 17.819 12.137 18.5056 12.9512 18.5056V17.9944C12.4311 17.9944 11.9873 17.5487 11.9873 17H11.4761ZM11.4761 14V17H11.9873V14H11.4761ZM12.9512 12.4944C12.137 12.4944 11.4761 13.181 11.4761 14H11.9873C11.9873 13.4513 12.4311 13.0056 12.9512 13.0056V12.4944ZM20.0244 12.4944H12.9512V13.0056H20.0244V12.4944ZM19.7688 9.75V12.75H20.28V9.75H19.7688ZM19.2927 9.25562C19.5594 9.25562 19.7688 9.46104 19.7688 9.75H20.28C20.28 9.19066 19.8536 8.74438 19.2927 8.74438V9.25562ZM14.4305 9.25459C16.1494 9.25512 17.792 9.25562 19.2927 9.25562V8.74438C17.7921 8.74438 16.1496 8.74387 14.4306 8.74334L14.4305 9.25459ZM2.95145 9.25562C6.69897 9.25221 10.7408 9.25345 14.4305 9.25459L14.4306 8.74334C10.741 8.74221 6.69887 8.74097 2.95099 8.74438L2.95145 9.25562ZM12.9512 14.0056H20.0244V13.4944H12.9512V14.0056ZM12.9629 14C12.9629 13.9923 12.9642 13.9896 12.9639 13.9904C12.9635 13.9913 12.962 13.9945 12.9585 13.9981C12.9549 14.0018 12.951 14.0042 12.9481 14.0053C12.9453 14.0065 12.9457 14.0056 12.9507 14.0056L12.9518 13.4944C12.8165 13.4941 12.6874 13.5438 12.5924 13.6413C12.4978 13.7383 12.4517 13.8673 12.4517 14H12.9629ZM12.9629 17V14H12.4517V17H12.9629ZM12.9512 16.9944C12.946 16.9944 12.9455 16.9935 12.9482 16.9946C12.9509 16.9957 12.9548 16.998 12.9584 17.0017C12.962 17.0053 12.9635 17.0085 12.9639 17.0095C12.9642 17.0104 12.9629 17.0076 12.9629 17H12.4517C12.4517 17.1328 12.4979 17.2617 12.5925 17.3587C12.6875 17.4561 12.8163 17.5056 12.9512 17.5056V16.9944ZM20.0244 16.9944H12.9512V17.5056H20.0244V16.9944ZM19.7688 13.75V17.25H20.28V13.75H19.7688ZM15.3902 14.2444C14.7043 14.2444 14.159 14.8125 14.159 15.5H14.6703C14.6703 15.0829 14.9985 14.7556 15.3902 14.7556V14.2444ZM16.6215 15.5C16.6215 14.8125 16.0761 14.2444 15.3902 14.2444V14.7556C15.782 14.7556 16.1102 15.0829 16.1102 15.5H16.6215ZM15.3902 16.7556C16.0761 16.7556 16.6215 16.1875 16.6215 15.5H16.1102C16.1102 15.9171 15.782 16.2444 15.3902 16.2444V16.7556ZM14.159 15.5C14.159 16.1875 14.7044 16.7556 15.3902 16.7556V16.2444C14.9985 16.2444 14.6703 15.9171 14.6703 15.5H14.159Z" fill="#57C478" mask="url(#path-1-inside-1)"/>
<path d="M8 7.88059L12.8806 3L17.3857 7.88059" stroke="#57C478" stroke-width="1.50172" stroke-linecap="round" stroke-linejoin="round"/>
<line x1="22.6455" y1="2.11226" x2="19.3526" y2="5.40515" stroke="#57C478" stroke-linecap="round" stroke-linejoin="round"/>
<line x1="20.8311" y1="1.96028" x2="18.5382" y2="4.25317" stroke="#57C478" stroke-linecap="round" stroke-linejoin="round"/>
<line x1="19" y1="1.70711" x2="17.7071" y2="3" stroke="#57C478" stroke-linecap="round" stroke-linejoin="round"/>
</svg>
