<svg width="24" height="24" viewBox="0 0 24 24" fill="none" xmlns="http://www.w3.org/2000/svg">
<circle cx="11.9639" cy="11.897" r="7.5" stroke="#1976D2"/>
<line x1="11.9639" y1="11.897" x2="11.9639" y2="15.897" stroke="#1976D2" stroke-width="2" stroke-linecap="round" stroke-linejoin="round"/>
<circle cx="11.9639" cy="8.89697" r="1" fill="#1976D2"/>
</svg>
