<svg width="24" height="24" viewBox="0 0 24 24" fill="none" xmlns="http://www.w3.org/2000/svg">
<path d="M19.3829 5.96671L13.1973 2.37828C12.7704 2.13046 12.2862 2 11.7932 2C11.3003 2 10.816 2.13046 10.3891 2.37828L4.20352 5.96671C3.77471 6.21417 3.41848 6.57106 3.17084 7.00132C2.92321 7.43158 2.79294 7.91994 2.79321 8.41705V15.5815C2.79294 16.0786 2.92321 16.5669 3.17084 16.9972C3.41848 17.4275 3.77471 17.7844 4.20352 18.0318L10.3891 21.6265C10.817 21.8713 11.3009 22 11.7932 22C12.2855 22 12.7694 21.8713 13.1973 21.6265L19.3829 18.0318C19.8117 17.7844 20.1679 17.4275 20.4156 16.9972C20.6632 16.5669 20.7935 16.0786 20.7932 15.5815V8.41705C20.7935 7.91994 20.6632 7.43158 20.4156 7.00132C20.1679 6.57106 19.8117 6.21417 19.3829 5.96671V5.96671ZM16.6303 10.886L14.4468 13.013L14.9602 16.0293C14.9713 16.0909 14.965 16.1545 14.9421 16.2127C14.9191 16.271 14.8804 16.3216 14.8303 16.3589C14.7724 16.3998 14.7032 16.4215 14.6324 16.4211C14.5786 16.4213 14.5256 16.4085 14.4777 16.3837L11.7808 14.9596L9.08393 16.3837C9.03101 16.4168 8.96995 16.4343 8.90764 16.4343C8.84534 16.4343 8.78428 16.4168 8.73136 16.3837C8.68128 16.3465 8.64257 16.2958 8.61962 16.2376C8.59666 16.1793 8.59037 16.1158 8.60146 16.0541L9.11486 13.0379L6.93136 10.8985C6.88842 10.8476 6.86092 10.7854 6.85215 10.7192C6.84338 10.653 6.85369 10.5858 6.88187 10.5253C6.90041 10.4647 6.93596 10.4108 6.98423 10.37C7.03251 10.3291 7.09146 10.3032 7.15404 10.2952L10.1664 9.85366L11.5149 7.11103C11.5374 7.04663 11.5792 6.99085 11.6346 6.95139C11.69 6.91193 11.7562 6.89074 11.8241 6.89074C11.892 6.89074 11.9582 6.91193 12.0136 6.95139C12.069 6.99085 12.1109 7.04663 12.1334 7.11103L13.4262 9.90342L16.4386 10.345C16.5011 10.3529 16.5601 10.3789 16.6084 10.4197C16.6567 10.4605 16.6922 10.5145 16.7107 10.5751C16.7231 10.6296 16.7223 10.6863 16.7083 10.7404C16.6943 10.7946 16.6676 10.8445 16.6303 10.886V10.886Z" stroke="#CC0066" stroke-miterlimit="10"/>
</svg>
