<svg width="82" height="70" viewBox="0 0 82 70" fill="none" xmlns="http://www.w3.org/2000/svg">
<path d="M41 26V48" stroke="#F44336" stroke-width="3" stroke-linecap="round"/>
<ellipse cx="41" cy="57" rx="3" ry="3" transform="rotate(-180 41 57)" fill="#F44336"/>
<path d="M4.38983 64.4838L38.4113 6.39827C39.5701 4.41988 42.4299 4.41988 43.5886 6.39827L77.6102 64.4838C78.7816 66.4837 77.3393 69 75.0215 69H6.97848C4.66074 69 3.21843 66.4837 4.38983 64.4838Z" stroke="#F44336" stroke-width="2" stroke-linecap="round" stroke-linejoin="round"/>
</svg>
