<svg width="62" height="63" viewBox="0 0 62 63" fill="none" xmlns="http://www.w3.org/2000/svg">
<path d="M11.0601 23.6578V14.0632C11.0601 12.9587 11.9555 12.0632 13.0601 12.0632H22.6547" stroke="#757575" stroke-linecap="round"/>
<path d="M49.7085 23.6578V14.0632C49.7085 12.9587 48.8131 12.0632 47.7085 12.0632H38.1139" stroke="#757575" stroke-linecap="round"/>
<path d="M11.0601 39.1173V48.7119C11.0601 49.8165 11.9555 50.7119 13.0601 50.7119H22.6547" stroke="#757575" stroke-linecap="round"/>
<path d="M49.7085 39.1173V48.7119C49.7085 49.8165 48.8131 50.7119 47.7085 50.7119H38.1139" stroke="#757575" stroke-linecap="round"/>
<path d="M30.3843 23.658V39.1174" stroke="#757575" stroke-linecap="round"/>
<path d="M22.6543 31.3877L38.1138 31.3877" stroke="#757575" stroke-linecap="round"/>
</svg>
