<svg width="24" height="24" viewBox="0 0 24 24" fill="none" xmlns="http://www.w3.org/2000/svg">
<circle cx="12" cy="12" r="7.5" stroke="#57C478"/>
<circle cx="12" cy="12" r="4.5" stroke="#57C478"/>
<rect x="10" y="5" width="4" height="3" fill="#57C478"/>
<rect x="10" y="16" width="4" height="3" fill="#57C478"/>
<rect x="5" y="14" width="4" height="3" transform="rotate(-90 5 14)" fill="#57C478"/>
<rect x="16" y="14" width="4" height="3" transform="rotate(-90 16 14)" fill="#57C478"/>
</svg>
