<svg width="24" height="24" viewBox="0 0 24 24" fill="none" xmlns="http://www.w3.org/2000/svg">
<path d="M17.616 12C18.3219 11.4857 18.7631 10.7143 18.7631 9.77143C18.7631 8.22857 17.3513 6.94286 15.7631 6.94286C15.4984 6.94286 15.3219 7.11429 15.3219 7.37143C14.7042 6.51429 13.6454 6 12.4984 6C11.3513 6 10.2042 6.6 9.67483 7.54286C9.14542 7.11429 8.43954 6.85714 7.73366 6.85714C6.14542 6.85714 4.82189 8.05714 4.82189 9.68571C4.82189 10.6286 5.3513 11.4857 6.05719 12C4.11601 12.6 2.79248 14.3143 2.79248 16.4571C2.79248 16.7143 2.96895 16.8857 3.23366 16.8857H6.76307C6.76307 17.1429 6.67483 17.4 6.67483 17.6571C6.67483 17.9143 6.8513 18.0857 7.11601 18.0857H17.969C18.2337 18.0857 18.4101 17.9143 18.4101 17.6571C18.4101 17.4 18.4101 17.1429 18.3219 16.8857H20.3513C20.616 16.8857 20.7925 16.7143 20.7925 16.4571C20.7925 14.4857 19.5572 12.6857 17.616 12ZM12.4984 6.85714C13.9101 6.85714 15.0572 7.97143 15.0572 9.34286C15.0572 10.7143 13.9101 11.8286 12.4984 11.8286C11.0866 11.8286 9.93954 10.7143 9.93954 9.34286C10.0278 7.97143 11.0866 6.85714 12.4984 6.85714ZM17.5278 17.2286H7.55719C7.73366 14.7429 9.93954 12.7714 12.4984 12.7714C15.0572 12.7714 17.2631 14.7429 17.5278 17.2286ZM9.93954 11.4C10.2042 11.6571 10.469 11.9143 10.8219 12.1714C10.6454 12.2571 10.3807 12.3429 10.2042 12.4286C9.93954 12.1714 9.5866 12.0857 9.32189 12C9.5866 11.8286 9.76307 11.6571 9.93954 11.4ZM5.70425 9.68571C5.70425 8.57143 6.5866 7.71429 7.73366 7.71429C8.26307 7.71429 8.79248 7.88571 9.14542 8.31429L9.23366 8.4C9.14542 8.65714 9.14542 9 9.14542 9.34286C9.14542 9.85714 9.23366 10.2857 9.49836 10.7143C9.49836 10.7143 9.41013 10.7143 9.41013 10.8C9.05719 11.3143 8.43954 11.6571 7.73366 11.6571C6.5866 11.5714 5.70425 10.7143 5.70425 9.68571ZM6.93954 16.0286H3.67483C3.8513 13.9714 5.52777 12.5143 7.73366 12.5143C8.26307 12.5143 8.79248 12.6 9.32189 12.8571C8.17483 13.6286 7.29248 14.7429 6.93954 16.0286ZM18.1454 16.0286C17.616 14.2286 16.116 12.7714 14.1748 12.1714C15.2337 11.5714 15.8513 10.5429 15.8513 9.34286C15.8513 8.74286 15.6748 8.22857 15.4984 7.8C15.5866 7.8 15.5866 7.88571 15.6748 7.88571C16.8219 7.88571 17.8807 8.82857 17.8807 9.94286C17.8807 10.8857 17.1748 11.6571 16.2042 11.8286C16.0278 11.8286 15.8513 12.0857 15.8513 12.2571C15.8513 12.4286 16.0278 12.6 16.2042 12.6857C18.1454 12.8571 19.6454 14.3143 19.8219 16.1143H18.1454V16.0286Z" fill="#757575"/>
</svg>
