<svg width="32" height="32" viewBox="0 0 32 32" fill="none" xmlns="http://www.w3.org/2000/svg">
<rect x="2.00016" y="7.33341" width="28" height="13.3333" rx="0.666667" stroke="#4FC3F7" stroke-width="1.33333"/>
<circle cx="26" cy="23.3333" r="1" stroke="#4FC3F7" stroke-width="2"/>
<circle cx="18" cy="23.3333" r="1" stroke="#4FC3F7" stroke-width="2"/>
<line x1="19.3332" y1="23.3333" x2="24.6665" y2="23.3333" stroke="#4FC3F7" stroke-width="1.33333" stroke-linecap="round"/>
<circle cx="12.6665" cy="23.3333" r="1" stroke="#4FC3F7" stroke-width="2"/>
<circle cx="4.6665" cy="23.3333" r="1" stroke="#4FC3F7" stroke-width="2"/>
<line x1="6.00016" y1="23.3333" x2="11.3335" y2="23.3333" stroke="#4FC3F7" stroke-width="1.33333" stroke-linecap="round"/>
<rect x="22.6665" y="10.6667" width="5.33333" height="4" rx="1.33333" stroke="#4FC3F7" stroke-width="1.33333"/>
<rect x="13.3335" y="10.6667" width="5.33333" height="4" rx="1.33333" stroke="#4FC3F7" stroke-width="1.33333"/>
<rect x="4" y="10.6667" width="5.33333" height="4" rx="1.33333" stroke="#4FC3F7" stroke-width="1.33333"/>
<line x1="4.66667" y1="16.6666" x2="27.3333" y2="16.6666" stroke="#4FC3F7" stroke-width="1.33333" stroke-linecap="round"/>
</svg>
