<svg width="25" height="24" viewBox="0 0 25 24" fill="none" xmlns="http://www.w3.org/2000/svg">
<path d="M21.6897 9.93017C22.0445 11.4403 22.0288 13.0116 21.6471 14.5107L11.5048 12.9644L10.4952 2.67303C12.0136 2.38147 13.5821 2.45929 15.0677 2.90281C16.6922 3.38783 18.16 4.29301 19.3227 5.5269C20.4854 6.7608 21.3019 8.2797 21.6897 9.93017Z" stroke="#BA68C8"/>
<path d="M11.0452 4.55762C6.79406 4.88101 3.44531 8.43286 3.44531 12.7669C3.44531 17.3139 7.13146 21.0001 11.6785 21.0001C15.8723 21.0001 19.3337 17.8646 19.8463 13.81" stroke="#BA68C8"/>
</svg>
