<svg width="24" height="24" viewBox="0 0 24 24" fill="none" xmlns="http://www.w3.org/2000/svg">
<path fill-rule="evenodd" clip-rule="evenodd" d="M10.7785 1.91992C10.1513 1.91992 9.64282 2.4284 9.64282 3.05564V6.46271H10.7785V4.19135V3.05564H11.9143H18.7286H19.8643V4.19135V20.0914V21.2271H18.7286H11.9143H10.7785V20.0914V17.8199H9.64282V21.2271C9.64282 21.8543 10.1513 22.3628 10.7785 22.3628H19.8643C20.4915 22.3628 21 21.8543 21 21.2271V3.05564C21 2.4284 20.4915 1.91992 19.8643 1.91992H10.7785Z" fill="#757575"/>
<path d="M10.5429 8.73438L6 12.1415L10.5429 15.5487" stroke="#757575" stroke-linecap="round" stroke-linejoin="round"/>
<line x1="6.5" y1="12.2092" x2="17.9929" y2="12.2092" stroke="#757575" stroke-linecap="round" stroke-linejoin="round"/>
</svg>
