<svg width="24" height="24" viewBox="0 0 24 24" fill="none" xmlns="http://www.w3.org/2000/svg">
<rect x="6.04248" y="7.5" width="11.5" height="12.75" rx="0.75" stroke="#BA68C8"/>
<circle cx="8.04248" cy="20.75" r="0.75" fill="#757575" stroke="#BA68C8"/>
<circle cx="15.5425" cy="20.75" r="0.75" fill="#757575" stroke="#BA68C8"/>
<path d="M9.79248 3.25C9.79248 2.83579 10.1283 2.5 10.5425 2.5H13.0425C13.4567 2.5 13.7925 2.83579 13.7925 3.25V7.5H9.79248V3.25Z" stroke="#BA68C8"/>
</svg>
