<svg width="24" height="24" viewBox="0 0 24 24" fill="none" xmlns="http://www.w3.org/2000/svg">
<mask id="path-1-inside-1" fill="white">
<path fill-rule="evenodd" clip-rule="evenodd" d="M6.96031 2H15.0387C16.12 2 16.9995 2.94482 16.9995 4.10632V7H15.9086V4.10632C15.9086 3.59103 15.5184 3.17188 15.0387 3.17188H13.9009V3.78055C13.9009 4.52197 13.3394 5.125 12.6494 5.125H9.34965C8.6596 5.125 8.09823 4.52197 8.09823 3.78055V3.17188H6.96031C6.48062 3.17188 6.09042 3.59103 6.09042 4.10632V19.8937C6.09042 20.409 6.48062 20.8281 6.96031 20.8281H15.0387C15.5184 20.8281 15.9086 20.409 15.9086 19.8937V18H16.9995V19.8937C16.9995 21.0552 16.12 22 15.0387 22H6.96031C5.87906 22 4.99951 21.0552 4.99951 19.8937V4.10632C4.99951 2.94482 5.87906 2 6.96031 2ZM12.81 3.78055V3.17188H9.18914V3.78055C9.18914 3.87576 9.26116 3.95312 9.34965 3.95312H12.6494C12.738 3.95312 12.81 3.87576 12.81 3.78055Z"/>
</mask>
<path fill-rule="evenodd" clip-rule="evenodd" d="M6.96031 2H15.0387C16.12 2 16.9995 2.94482 16.9995 4.10632V7H15.9086V4.10632C15.9086 3.59103 15.5184 3.17188 15.0387 3.17188H13.9009V3.78055C13.9009 4.52197 13.3394 5.125 12.6494 5.125H9.34965C8.6596 5.125 8.09823 4.52197 8.09823 3.78055V3.17188H6.96031C6.48062 3.17188 6.09042 3.59103 6.09042 4.10632V19.8937C6.09042 20.409 6.48062 20.8281 6.96031 20.8281H15.0387C15.5184 20.8281 15.9086 20.409 15.9086 19.8937V18H16.9995V19.8937C16.9995 21.0552 16.12 22 15.0387 22H6.96031C5.87906 22 4.99951 21.0552 4.99951 19.8937V4.10632C4.99951 2.94482 5.87906 2 6.96031 2ZM12.81 3.78055V3.17188H9.18914V3.78055C9.18914 3.87576 9.26116 3.95312 9.34965 3.95312H12.6494C12.738 3.95312 12.81 3.87576 12.81 3.78055Z" fill="#4FC3F7"/>
<path d="M16.9995 7V7.03711H17.0366V7H16.9995ZM15.9086 7H15.8715V7.03711H15.9086V7ZM13.9009 3.17188V3.13477H13.8638V3.17188H13.9009ZM8.09823 3.17188H8.13534V3.13477H8.09823V3.17188ZM15.9086 18V17.9629H15.8715V18H15.9086ZM16.9995 18H17.0366V17.9629H16.9995V18ZM12.81 3.17188H12.8471V3.13477H12.81V3.17188ZM9.18914 3.17188V3.13477H9.15203V3.17188H9.18914ZM15.0387 1.96289H6.96031V2.03711H15.0387V1.96289ZM17.0366 4.10632C17.0366 2.92688 16.1429 1.96289 15.0387 1.96289V2.03711C16.097 2.03711 16.9624 2.96277 16.9624 4.10632H17.0366ZM17.0366 7V4.10632H16.9624V7H17.0366ZM15.9086 7.03711H16.9995V6.96289H15.9086V7.03711ZM15.8715 4.10632V7H15.9457V4.10632H15.8715ZM15.0387 3.20898C15.4955 3.20898 15.8715 3.60898 15.8715 4.10632H15.9457C15.9457 3.57309 15.5414 3.13477 15.0387 3.13477V3.20898ZM13.9009 3.20898H15.0387V3.13477H13.9009V3.20898ZM13.938 3.78055V3.17188H13.8638V3.78055H13.938ZM12.6494 5.16211C13.3624 5.16211 13.938 4.53992 13.938 3.78055H13.8638C13.8638 4.50402 13.3165 5.08789 12.6494 5.08789V5.16211ZM9.34965 5.16211H12.6494V5.08789H9.34965V5.16211ZM8.06112 3.78055C8.06112 4.53992 8.63664 5.16211 9.34965 5.16211V5.08789C8.68255 5.08789 8.13534 4.50403 8.13534 3.78055H8.06112ZM8.06112 3.17188V3.78055H8.13534V3.17188H8.06112ZM6.96031 3.20898H8.09823V3.13477H6.96031V3.20898ZM6.12753 4.10632C6.12753 3.60898 6.50357 3.20898 6.96031 3.20898V3.13477C6.45767 3.13477 6.05331 3.57309 6.05331 4.10632H6.12753ZM6.12753 19.8937V4.10632H6.05331V19.8937H6.12753ZM6.96031 20.791C6.50357 20.791 6.12753 20.391 6.12753 19.8937H6.05331C6.05331 20.4269 6.45767 20.8652 6.96031 20.8652V20.791ZM15.0387 20.791H6.96031V20.8652H15.0387V20.791ZM15.8715 19.8937C15.8715 20.391 15.4955 20.791 15.0387 20.791V20.8652C15.5414 20.8652 15.9457 20.4269 15.9457 19.8937H15.8715ZM15.8715 18V19.8937H15.9457V18H15.8715ZM16.9995 17.9629H15.9086V18.0371H16.9995V17.9629ZM17.0366 19.8937V18H16.9624V19.8937H17.0366ZM15.0387 22.0371C16.1429 22.0371 17.0366 21.0731 17.0366 19.8937H16.9624C16.9624 21.0372 16.097 21.9629 15.0387 21.9629V22.0371ZM6.96031 22.0371H15.0387V21.9629H6.96031V22.0371ZM4.9624 19.8937C4.9624 21.0731 5.8561 22.0371 6.96031 22.0371V21.9629C5.90201 21.9629 5.03662 21.0372 5.03662 19.8937H4.9624ZM4.9624 4.10632V19.8937H5.03662V4.10632H4.9624ZM6.96031 1.96289C5.8561 1.96289 4.9624 2.92688 4.9624 4.10632H5.03662C5.03662 2.96277 5.90201 2.03711 6.96031 2.03711V1.96289ZM12.7729 3.17188V3.78055H12.8471V3.17188H12.7729ZM9.18914 3.20898H12.81V3.13477H9.18914V3.20898ZM9.22625 3.78055V3.17188H9.15203V3.78055H9.22625ZM9.34965 3.91602C9.28413 3.91602 9.22625 3.85784 9.22625 3.78055H9.15203C9.15203 3.89369 9.23819 3.99023 9.34965 3.99023V3.91602ZM12.6494 3.91602H9.34965V3.99023H12.6494V3.91602ZM12.7729 3.78055C12.7729 3.85781 12.7151 3.91602 12.6494 3.91602V3.99023C12.761 3.99023 12.8471 3.89371 12.8471 3.78055H12.7729Z" fill="#4FC3F7" mask="url(#path-1-inside-1)"/>
<rect x="10.4995" y="8.5" width="12" height="8" rx="0.5" stroke="#4FC3F7" stroke-linecap="round" stroke-linejoin="round"/>
<line x1="12.4995" y1="10.5" x2="20.4995" y2="10.5" stroke="#4FC3F7" stroke-linecap="round" stroke-linejoin="round"/>
<line x1="12.4995" y1="12.5" x2="20.4995" y2="12.5" stroke="#4FC3F7" stroke-linecap="round" stroke-linejoin="round"/>
</svg>
