<svg width="100" height="100" viewBox="0 0 100 100" fill="none" xmlns="http://www.w3.org/2000/svg">
<path d="M3.44828 0H0V3.44828H3.44828V0Z" fill="black"/>
<path d="M6.89749 0H3.44922V3.44828H6.89749V0Z" fill="black"/>
<path d="M10.3448 0H6.89648V3.44828H10.3448V0Z" fill="black"/>
<path d="M13.794 0H10.3457V3.44828H13.794V0Z" fill="black"/>
<path d="M17.2412 0H13.793V3.44828H17.2412V0Z" fill="black"/>
<path d="M20.6905 0H17.2422V3.44828H20.6905V0Z" fill="black"/>
<path d="M24.1377 0H20.6895V3.44828H24.1377V0Z" fill="black"/>
<path d="M37.9307 0H34.4824V3.44828H37.9307V0Z" fill="black"/>
<path d="M41.3799 0H37.9316V3.44828H41.3799V0Z" fill="black"/>
<path d="M44.8272 0H41.3789V3.44828H44.8272V0Z" fill="black"/>
<path d="M51.7237 0H48.2754V3.44828H51.7237V0Z" fill="black"/>
<path d="M58.6202 0H55.1719V3.44828H58.6202V0Z" fill="black"/>
<path d="M62.0694 0H58.6211V3.44828H62.0694V0Z" fill="black"/>
<path d="M65.5166 0H62.0684V3.44828H65.5166V0Z" fill="black"/>
<path d="M68.9659 0H65.5176V3.44828H68.9659V0Z" fill="black"/>
<path d="M79.3096 0H75.8613V3.44828H79.3096V0Z" fill="black"/>
<path d="M82.7588 0H79.3105V3.44828H82.7588V0Z" fill="black"/>
<path d="M86.2061 0H82.7578V3.44828H86.2061V0Z" fill="black"/>
<path d="M89.6553 0H86.207V3.44828H89.6553V0Z" fill="black"/>
<path d="M93.1026 0H89.6543V3.44828H93.1026V0Z" fill="black"/>
<path d="M96.5518 0H93.1035V3.44828H96.5518V0Z" fill="black"/>
<path d="M99.9991 0H96.5508V3.44828H99.9991V0Z" fill="black"/>
<path d="M3.44828 3.44824H0V6.89652H3.44828V3.44824Z" fill="black"/>
<path d="M24.1377 3.44824H20.6895V6.89652H24.1377V3.44824Z" fill="black"/>
<path d="M34.4834 3.44824H31.0352V6.89652H34.4834V3.44824Z" fill="black"/>
<path d="M37.9307 3.44824H34.4824V6.89652H37.9307V3.44824Z" fill="black"/>
<path d="M41.3799 3.44824H37.9316V6.89652H41.3799V3.44824Z" fill="black"/>
<path d="M44.8272 3.44824H41.3789V6.89652H44.8272V3.44824Z" fill="black"/>
<path d="M48.2764 3.44824H44.8281V6.89652H48.2764V3.44824Z" fill="black"/>
<path d="M51.7237 3.44824H48.2754V6.89652H51.7237V3.44824Z" fill="black"/>
<path d="M55.1729 3.44824H51.7246V6.89652H55.1729V3.44824Z" fill="black"/>
<path d="M72.4131 3.44824H68.9648V6.89652H72.4131V3.44824Z" fill="black"/>
<path d="M79.3096 3.44824H75.8613V6.89652H79.3096V3.44824Z" fill="black"/>
<path d="M99.9991 3.44824H96.5508V6.89652H99.9991V3.44824Z" fill="black"/>
<path d="M3.44828 6.89661H0V10.3449H3.44828V6.89661Z" fill="black"/>
<path d="M10.3448 6.89661H6.89648V10.3449H10.3448V6.89661Z" fill="black"/>
<path d="M13.794 6.89661H10.3457V10.3449H13.794V6.89661Z" fill="black"/>
<path d="M17.2412 6.89661H13.793V10.3449H17.2412V6.89661Z" fill="black"/>
<path d="M24.1377 6.89661H20.6895V10.3449H24.1377V6.89661Z" fill="black"/>
<path d="M31.0342 6.89661H27.5859V10.3449H31.0342V6.89661Z" fill="black"/>
<path d="M34.4834 6.89661H31.0352V10.3449H34.4834V6.89661Z" fill="black"/>
<path d="M51.7237 6.89661H48.2754V10.3449H51.7237V6.89661Z" fill="black"/>
<path d="M55.1729 6.89661H51.7246V10.3449H55.1729V6.89661Z" fill="black"/>
<path d="M58.6202 6.89661H55.1719V10.3449H58.6202V6.89661Z" fill="black"/>
<path d="M62.0694 6.89661H58.6211V10.3449H62.0694V6.89661Z" fill="black"/>
<path d="M68.9659 6.89661H65.5176V10.3449H68.9659V6.89661Z" fill="black"/>
<path d="M72.4131 6.89661H68.9648V10.3449H72.4131V6.89661Z" fill="black"/>
<path d="M79.3096 6.89661H75.8613V10.3449H79.3096V6.89661Z" fill="black"/>
<path d="M86.2061 6.89661H82.7578V10.3449H86.2061V6.89661Z" fill="black"/>
<path d="M89.6553 6.89661H86.207V10.3449H89.6553V6.89661Z" fill="black"/>
<path d="M93.1026 6.89661H89.6543V10.3449H93.1026V6.89661Z" fill="black"/>
<path d="M99.9991 6.89661H96.5508V10.3449H99.9991V6.89661Z" fill="black"/>
<path d="M3.44828 10.3448H0V13.7931H3.44828V10.3448Z" fill="black"/>
<path d="M10.3448 10.3448H6.89648V13.7931H10.3448V10.3448Z" fill="black"/>
<path d="M13.794 10.3448H10.3457V13.7931H13.794V10.3448Z" fill="black"/>
<path d="M17.2412 10.3448H13.793V13.7931H17.2412V10.3448Z" fill="black"/>
<path d="M24.1377 10.3448H20.6895V13.7931H24.1377V10.3448Z" fill="black"/>
<path d="M34.4834 10.3448H31.0352V13.7931H34.4834V10.3448Z" fill="black"/>
<path d="M41.3799 10.3448H37.9316V13.7931H41.3799V10.3448Z" fill="black"/>
<path d="M48.2764 10.3448H44.8281V13.7931H48.2764V10.3448Z" fill="black"/>
<path d="M51.7237 10.3448H48.2754V13.7931H51.7237V10.3448Z" fill="black"/>
<path d="M65.5166 10.3448H62.0684V13.7931H65.5166V10.3448Z" fill="black"/>
<path d="M68.9659 10.3448H65.5176V13.7931H68.9659V10.3448Z" fill="black"/>
<path d="M79.3096 10.3448H75.8613V13.7931H79.3096V10.3448Z" fill="black"/>
<path d="M86.2061 10.3448H82.7578V13.7931H86.2061V10.3448Z" fill="black"/>
<path d="M89.6553 10.3448H86.207V13.7931H89.6553V10.3448Z" fill="black"/>
<path d="M93.1026 10.3448H89.6543V13.7931H93.1026V10.3448Z" fill="black"/>
<path d="M99.9991 10.3448H96.5508V13.7931H99.9991V10.3448Z" fill="black"/>
<path d="M3.44828 13.7931H0V17.2414H3.44828V13.7931Z" fill="black"/>
<path d="M10.3448 13.7931H6.89648V17.2414H10.3448V13.7931Z" fill="black"/>
<path d="M13.794 13.7931H10.3457V17.2414H13.794V13.7931Z" fill="black"/>
<path d="M17.2412 13.7931H13.793V17.2414H17.2412V13.7931Z" fill="black"/>
<path d="M24.1377 13.7931H20.6895V17.2414H24.1377V13.7931Z" fill="black"/>
<path d="M31.0342 13.7931H27.5859V17.2414H31.0342V13.7931Z" fill="black"/>
<path d="M37.9307 13.7931H34.4824V17.2414H37.9307V13.7931Z" fill="black"/>
<path d="M51.7237 13.7931H48.2754V17.2414H51.7237V13.7931Z" fill="black"/>
<path d="M58.6202 13.7931H55.1719V17.2414H58.6202V13.7931Z" fill="black"/>
<path d="M65.5166 13.7931H62.0684V17.2414H65.5166V13.7931Z" fill="black"/>
<path d="M79.3096 13.7931H75.8613V17.2414H79.3096V13.7931Z" fill="black"/>
<path d="M86.2061 13.7931H82.7578V17.2414H86.2061V13.7931Z" fill="black"/>
<path d="M89.6553 13.7931H86.207V17.2414H89.6553V13.7931Z" fill="black"/>
<path d="M93.1026 13.7931H89.6543V17.2414H93.1026V13.7931Z" fill="black"/>
<path d="M99.9991 13.7931H96.5508V17.2414H99.9991V13.7931Z" fill="black"/>
<path d="M3.44828 17.2413H0V20.6896H3.44828V17.2413Z" fill="black"/>
<path d="M24.1377 17.2413H20.6895V20.6896H24.1377V17.2413Z" fill="black"/>
<path d="M31.0342 17.2413H27.5859V20.6896H31.0342V17.2413Z" fill="black"/>
<path d="M34.4834 17.2413H31.0352V20.6896H34.4834V17.2413Z" fill="black"/>
<path d="M37.9307 17.2413H34.4824V20.6896H37.9307V17.2413Z" fill="black"/>
<path d="M48.2764 17.2413H44.8281V20.6896H48.2764V17.2413Z" fill="black"/>
<path d="M58.6202 17.2413H55.1719V20.6896H58.6202V17.2413Z" fill="black"/>
<path d="M65.5166 17.2413H62.0684V20.6896H65.5166V17.2413Z" fill="black"/>
<path d="M68.9659 17.2413H65.5176V20.6896H68.9659V17.2413Z" fill="black"/>
<path d="M79.3096 17.2413H75.8613V20.6896H79.3096V17.2413Z" fill="black"/>
<path d="M99.9991 17.2413H96.5508V20.6896H99.9991V17.2413Z" fill="black"/>
<path d="M3.44828 20.6897H0V24.138H3.44828V20.6897Z" fill="black"/>
<path d="M6.89749 20.6897H3.44922V24.138H6.89749V20.6897Z" fill="black"/>
<path d="M10.3448 20.6897H6.89648V24.138H10.3448V20.6897Z" fill="black"/>
<path d="M13.794 20.6897H10.3457V24.138H13.794V20.6897Z" fill="black"/>
<path d="M17.2412 20.6897H13.793V24.138H17.2412V20.6897Z" fill="black"/>
<path d="M20.6905 20.6897H17.2422V24.138H20.6905V20.6897Z" fill="black"/>
<path d="M24.1377 20.6897H20.6895V24.138H24.1377V20.6897Z" fill="black"/>
<path d="M31.0342 20.6897H27.5859V24.138H31.0342V20.6897Z" fill="black"/>
<path d="M37.9307 20.6897H34.4824V24.138H37.9307V20.6897Z" fill="black"/>
<path d="M44.8272 20.6897H41.3789V24.138H44.8272V20.6897Z" fill="black"/>
<path d="M51.7237 20.6897H48.2754V24.138H51.7237V20.6897Z" fill="black"/>
<path d="M58.6202 20.6897H55.1719V24.138H58.6202V20.6897Z" fill="black"/>
<path d="M65.5166 20.6897H62.0684V24.138H65.5166V20.6897Z" fill="black"/>
<path d="M72.4131 20.6897H68.9648V24.138H72.4131V20.6897Z" fill="black"/>
<path d="M79.3096 20.6897H75.8613V24.138H79.3096V20.6897Z" fill="black"/>
<path d="M82.7588 20.6897H79.3105V24.138H82.7588V20.6897Z" fill="black"/>
<path d="M86.2061 20.6897H82.7578V24.138H86.2061V20.6897Z" fill="black"/>
<path d="M89.6553 20.6897H86.207V24.138H89.6553V20.6897Z" fill="black"/>
<path d="M93.1026 20.6897H89.6543V24.138H93.1026V20.6897Z" fill="black"/>
<path d="M96.5518 20.6897H93.1035V24.138H96.5518V20.6897Z" fill="black"/>
<path d="M99.9991 20.6897H96.5508V24.138H99.9991V20.6897Z" fill="black"/>
<path d="M37.9307 24.1379H34.4824V27.5862H37.9307V24.1379Z" fill="black"/>
<path d="M48.2764 24.1379H44.8281V27.5862H48.2764V24.1379Z" fill="black"/>
<path d="M51.7237 24.1379H48.2754V27.5862H51.7237V24.1379Z" fill="black"/>
<path d="M55.1729 24.1379H51.7246V27.5862H55.1729V24.1379Z" fill="black"/>
<path d="M58.6202 24.1379H55.1719V27.5862H58.6202V24.1379Z" fill="black"/>
<path d="M62.0694 24.1379H58.6211V27.5862H62.0694V24.1379Z" fill="black"/>
<path d="M65.5166 24.1379H62.0684V27.5862H65.5166V24.1379Z" fill="black"/>
<path d="M72.4131 24.1379H68.9648V27.5862H72.4131V24.1379Z" fill="black"/>
<path d="M6.89749 27.5862H3.44922V31.0345H6.89749V27.5862Z" fill="black"/>
<path d="M17.2412 27.5862H13.793V31.0345H17.2412V27.5862Z" fill="black"/>
<path d="M24.1377 27.5862H20.6895V31.0345H24.1377V27.5862Z" fill="black"/>
<path d="M31.0342 27.5862H27.5859V31.0345H31.0342V27.5862Z" fill="black"/>
<path d="M34.4834 27.5862H31.0352V31.0345H34.4834V27.5862Z" fill="black"/>
<path d="M37.9307 27.5862H34.4824V31.0345H37.9307V27.5862Z" fill="black"/>
<path d="M51.7237 27.5862H48.2754V31.0345H51.7237V27.5862Z" fill="black"/>
<path d="M65.5166 27.5862H62.0684V31.0345H65.5166V27.5862Z" fill="black"/>
<path d="M68.9659 27.5862H65.5176V31.0345H68.9659V27.5862Z" fill="black"/>
<path d="M75.8623 27.5862H72.4141V31.0345H75.8623V27.5862Z" fill="black"/>
<path d="M82.7588 27.5862H79.3105V31.0345H82.7588V27.5862Z" fill="black"/>
<path d="M86.2061 27.5862H82.7578V31.0345H86.2061V27.5862Z" fill="black"/>
<path d="M93.1026 27.5862H89.6543V31.0345H93.1026V27.5862Z" fill="black"/>
<path d="M3.44828 31.0344H0V34.4827H3.44828V31.0344Z" fill="black"/>
<path d="M6.89749 31.0344H3.44922V34.4827H6.89749V31.0344Z" fill="black"/>
<path d="M10.3448 31.0344H6.89648V34.4827H10.3448V31.0344Z" fill="black"/>
<path d="M13.794 31.0344H10.3457V34.4827H13.794V31.0344Z" fill="black"/>
<path d="M20.6905 31.0344H17.2422V34.4827H20.6905V31.0344Z" fill="black"/>
<path d="M27.5869 31.0344H24.1387V34.4827H27.5869V31.0344Z" fill="black"/>
<path d="M31.0342 31.0344H27.5859V34.4827H31.0342V31.0344Z" fill="black"/>
<path d="M41.3799 31.0344H37.9316V34.4827H41.3799V31.0344Z" fill="black"/>
<path d="M44.8272 31.0344H41.3789V34.4827H44.8272V31.0344Z" fill="black"/>
<path d="M62.0694 31.0344H58.6211V34.4827H62.0694V31.0344Z" fill="black"/>
<path d="M68.9659 31.0344H65.5176V34.4827H68.9659V31.0344Z" fill="black"/>
<path d="M72.4131 31.0344H68.9648V34.4827H72.4131V31.0344Z" fill="black"/>
<path d="M79.3096 31.0344H75.8613V34.4827H79.3096V31.0344Z" fill="black"/>
<path d="M82.7588 31.0344H79.3105V34.4827H82.7588V31.0344Z" fill="black"/>
<path d="M86.2061 31.0344H82.7578V34.4827H86.2061V31.0344Z" fill="black"/>
<path d="M96.5518 31.0344H93.1035V34.4827H96.5518V31.0344Z" fill="black"/>
<path d="M99.9991 31.0344H96.5508V34.4827H99.9991V31.0344Z" fill="black"/>
<path d="M6.89749 34.4828H3.44922V37.9311H6.89749V34.4828Z" fill="black"/>
<path d="M24.1377 34.4828H20.6895V37.9311H24.1377V34.4828Z" fill="black"/>
<path d="M37.9307 34.4828H34.4824V37.9311H37.9307V34.4828Z" fill="black"/>
<path d="M41.3799 34.4828H37.9316V37.9311H41.3799V34.4828Z" fill="black"/>
<path d="M44.8272 34.4828H41.3789V37.9311H44.8272V34.4828Z" fill="black"/>
<path d="M48.2764 34.4828H44.8281V37.9311H48.2764V34.4828Z" fill="black"/>
<path d="M51.7237 34.4828H48.2754V37.9311H51.7237V34.4828Z" fill="black"/>
<path d="M62.0694 34.4828H58.6211V37.9311H62.0694V34.4828Z" fill="black"/>
<path d="M72.4131 34.4828H68.9648V37.9311H72.4131V34.4828Z" fill="black"/>
<path d="M82.7588 34.4828H79.3105V37.9311H82.7588V34.4828Z" fill="black"/>
<path d="M89.6553 34.4828H86.207V37.9311H89.6553V34.4828Z" fill="black"/>
<path d="M93.1026 34.4828H89.6543V37.9311H93.1026V34.4828Z" fill="black"/>
<path d="M99.9991 34.4828H96.5508V37.9311H99.9991V34.4828Z" fill="black"/>
<path d="M6.89749 37.931H3.44922V41.3793H6.89749V37.931Z" fill="black"/>
<path d="M10.3448 37.931H6.89648V41.3793H10.3448V37.931Z" fill="black"/>
<path d="M17.2412 37.931H13.793V41.3793H17.2412V37.931Z" fill="black"/>
<path d="M27.5869 37.931H24.1387V41.3793H27.5869V37.931Z" fill="black"/>
<path d="M51.7237 37.931H48.2754V41.3793H51.7237V37.931Z" fill="black"/>
<path d="M55.1729 37.931H51.7246V41.3793H55.1729V37.931Z" fill="black"/>
<path d="M58.6202 37.931H55.1719V41.3793H58.6202V37.931Z" fill="black"/>
<path d="M62.0694 37.931H58.6211V41.3793H62.0694V37.931Z" fill="black"/>
<path d="M65.5166 37.931H62.0684V41.3793H65.5166V37.931Z" fill="black"/>
<path d="M82.7588 37.931H79.3105V41.3793H82.7588V37.931Z" fill="black"/>
<path d="M86.2061 37.931H82.7578V41.3793H86.2061V37.931Z" fill="black"/>
<path d="M89.6553 37.931H86.207V41.3793H89.6553V37.931Z" fill="black"/>
<path d="M96.5518 37.931H93.1035V41.3793H96.5518V37.931Z" fill="black"/>
<path d="M99.9991 37.931H96.5508V41.3793H99.9991V37.931Z" fill="black"/>
<path d="M24.1377 41.3793H20.6895V44.8275H24.1377V41.3793Z" fill="black"/>
<path d="M27.5869 41.3793H24.1387V44.8275H27.5869V41.3793Z" fill="black"/>
<path d="M31.0342 41.3793H27.5859V44.8275H31.0342V41.3793Z" fill="black"/>
<path d="M34.4834 41.3793H31.0352V44.8275H34.4834V41.3793Z" fill="black"/>
<path d="M55.1729 41.3793H51.7246V44.8275H55.1729V41.3793Z" fill="black"/>
<path d="M62.0694 41.3793H58.6211V44.8275H62.0694V41.3793Z" fill="black"/>
<path d="M68.9659 41.3793H65.5176V44.8275H68.9659V41.3793Z" fill="black"/>
<path d="M72.4131 41.3793H68.9648V44.8275H72.4131V41.3793Z" fill="black"/>
<path d="M99.9991 41.3793H96.5508V44.8275H99.9991V41.3793Z" fill="black"/>
<path d="M13.794 44.8276H10.3457V48.2759H13.794V44.8276Z" fill="black"/>
<path d="M17.2412 44.8276H13.793V48.2759H17.2412V44.8276Z" fill="black"/>
<path d="M31.0342 44.8276H27.5859V48.2759H31.0342V44.8276Z" fill="black"/>
<path d="M34.4834 44.8276H31.0352V48.2759H34.4834V44.8276Z" fill="black"/>
<path d="M41.3799 44.8276H37.9316V48.2759H41.3799V44.8276Z" fill="black"/>
<path d="M51.7237 44.8276H48.2754V48.2759H51.7237V44.8276Z" fill="black"/>
<path d="M58.6202 44.8276H55.1719V48.2759H58.6202V44.8276Z" fill="black"/>
<path d="M62.0694 44.8276H58.6211V48.2759H62.0694V44.8276Z" fill="black"/>
<path d="M65.5166 44.8276H62.0684V48.2759H65.5166V44.8276Z" fill="black"/>
<path d="M79.3096 44.8276H75.8613V48.2759H79.3096V44.8276Z" fill="black"/>
<path d="M86.2061 44.8276H82.7578V48.2759H86.2061V44.8276Z" fill="black"/>
<path d="M93.1026 44.8276H89.6543V48.2759H93.1026V44.8276Z" fill="black"/>
<path d="M99.9991 44.8276H96.5508V48.2759H99.9991V44.8276Z" fill="black"/>
<path d="M10.3448 48.2759H6.89648V51.7242H10.3448V48.2759Z" fill="black"/>
<path d="M20.6905 48.2759H17.2422V51.7242H20.6905V48.2759Z" fill="black"/>
<path d="M24.1377 48.2759H20.6895V51.7242H24.1377V48.2759Z" fill="black"/>
<path d="M27.5869 48.2759H24.1387V51.7242H27.5869V48.2759Z" fill="black"/>
<path d="M41.3799 48.2759H37.9316V51.7242H41.3799V48.2759Z" fill="black"/>
<path d="M51.7237 48.2759H48.2754V51.7242H51.7237V48.2759Z" fill="black"/>
<path d="M55.1729 48.2759H51.7246V51.7242H55.1729V48.2759Z" fill="black"/>
<path d="M65.5166 48.2759H62.0684V51.7242H65.5166V48.2759Z" fill="black"/>
<path d="M75.8623 48.2759H72.4141V51.7242H75.8623V48.2759Z" fill="black"/>
<path d="M82.7588 48.2759H79.3105V51.7242H82.7588V48.2759Z" fill="black"/>
<path d="M86.2061 48.2759H82.7578V51.7242H86.2061V48.2759Z" fill="black"/>
<path d="M96.5518 48.2759H93.1035V51.7242H96.5518V48.2759Z" fill="black"/>
<path d="M99.9991 48.2759H96.5508V51.7242H99.9991V48.2759Z" fill="black"/>
<path d="M3.44828 51.7241H0V55.1724H3.44828V51.7241Z" fill="black"/>
<path d="M6.89749 51.7241H3.44922V55.1724H6.89749V51.7241Z" fill="black"/>
<path d="M10.3448 51.7241H6.89648V55.1724H10.3448V51.7241Z" fill="black"/>
<path d="M13.794 51.7241H10.3457V55.1724H13.794V51.7241Z" fill="black"/>
<path d="M27.5869 51.7241H24.1387V55.1724H27.5869V51.7241Z" fill="black"/>
<path d="M41.3799 51.7241H37.9316V55.1724H41.3799V51.7241Z" fill="black"/>
<path d="M44.8272 51.7241H41.3789V55.1724H44.8272V51.7241Z" fill="black"/>
<path d="M58.6202 51.7241H55.1719V55.1724H58.6202V51.7241Z" fill="black"/>
<path d="M68.9659 51.7241H65.5176V55.1724H68.9659V51.7241Z" fill="black"/>
<path d="M72.4131 51.7241H68.9648V55.1724H72.4131V51.7241Z" fill="black"/>
<path d="M82.7588 51.7241H79.3105V55.1724H82.7588V51.7241Z" fill="black"/>
<path d="M86.2061 51.7241H82.7578V55.1724H86.2061V51.7241Z" fill="black"/>
<path d="M89.6553 51.7241H86.207V55.1724H89.6553V51.7241Z" fill="black"/>
<path d="M3.44828 55.1724H0V58.6206H3.44828V55.1724Z" fill="black"/>
<path d="M6.89749 55.1724H3.44922V58.6206H6.89749V55.1724Z" fill="black"/>
<path d="M17.2412 55.1724H13.793V58.6206H17.2412V55.1724Z" fill="black"/>
<path d="M20.6905 55.1724H17.2422V58.6206H20.6905V55.1724Z" fill="black"/>
<path d="M24.1377 55.1724H20.6895V58.6206H24.1377V55.1724Z" fill="black"/>
<path d="M27.5869 55.1724H24.1387V58.6206H27.5869V55.1724Z" fill="black"/>
<path d="M58.6202 55.1724H55.1719V58.6206H58.6202V55.1724Z" fill="black"/>
<path d="M72.4131 55.1724H68.9648V58.6206H72.4131V55.1724Z" fill="black"/>
<path d="M75.8623 55.1724H72.4141V58.6206H75.8623V55.1724Z" fill="black"/>
<path d="M82.7588 55.1724H79.3105V58.6206H82.7588V55.1724Z" fill="black"/>
<path d="M96.5518 55.1724H93.1035V58.6206H96.5518V55.1724Z" fill="black"/>
<path d="M99.9991 55.1724H96.5508V58.6206H99.9991V55.1724Z" fill="black"/>
<path d="M3.44828 58.6207H0V62.069H3.44828V58.6207Z" fill="black"/>
<path d="M6.89749 58.6207H3.44922V62.069H6.89749V58.6207Z" fill="black"/>
<path d="M20.6905 58.6207H17.2422V62.069H20.6905V58.6207Z" fill="black"/>
<path d="M27.5869 58.6207H24.1387V62.069H27.5869V58.6207Z" fill="black"/>
<path d="M34.4834 58.6207H31.0352V62.069H34.4834V58.6207Z" fill="black"/>
<path d="M51.7237 58.6207H48.2754V62.069H51.7237V58.6207Z" fill="black"/>
<path d="M62.0694 58.6207H58.6211V62.069H62.0694V58.6207Z" fill="black"/>
<path d="M65.5166 58.6207H62.0684V62.069H65.5166V58.6207Z" fill="black"/>
<path d="M68.9659 58.6207H65.5176V62.069H68.9659V58.6207Z" fill="black"/>
<path d="M75.8623 58.6207H72.4141V62.069H75.8623V58.6207Z" fill="black"/>
<path d="M79.3096 58.6207H75.8613V62.069H79.3096V58.6207Z" fill="black"/>
<path d="M82.7588 58.6207H79.3105V62.069H82.7588V58.6207Z" fill="black"/>
<path d="M86.2061 58.6207H82.7578V62.069H86.2061V58.6207Z" fill="black"/>
<path d="M89.6553 58.6207H86.207V62.069H89.6553V58.6207Z" fill="black"/>
<path d="M99.9991 58.6207H96.5508V62.069H99.9991V58.6207Z" fill="black"/>
<path d="M10.3448 62.069H6.89648V65.5172H10.3448V62.069Z" fill="black"/>
<path d="M13.794 62.069H10.3457V65.5172H13.794V62.069Z" fill="black"/>
<path d="M17.2412 62.069H13.793V65.5172H17.2412V62.069Z" fill="black"/>
<path d="M20.6905 62.069H17.2422V65.5172H20.6905V62.069Z" fill="black"/>
<path d="M24.1377 62.069H20.6895V65.5172H24.1377V62.069Z" fill="black"/>
<path d="M34.4834 62.069H31.0352V65.5172H34.4834V62.069Z" fill="black"/>
<path d="M41.3799 62.069H37.9316V65.5172H41.3799V62.069Z" fill="black"/>
<path d="M48.2764 62.069H44.8281V65.5172H48.2764V62.069Z" fill="black"/>
<path d="M51.7237 62.069H48.2754V65.5172H51.7237V62.069Z" fill="black"/>
<path d="M55.1729 62.069H51.7246V65.5172H55.1729V62.069Z" fill="black"/>
<path d="M65.5166 62.069H62.0684V65.5172H65.5166V62.069Z" fill="black"/>
<path d="M68.9659 62.069H65.5176V65.5172H68.9659V62.069Z" fill="black"/>
<path d="M89.6553 62.069H86.207V65.5172H89.6553V62.069Z" fill="black"/>
<path d="M99.9991 62.069H96.5508V65.5172H99.9991V62.069Z" fill="black"/>
<path d="M10.3448 65.5172H6.89648V68.9655H10.3448V65.5172Z" fill="black"/>
<path d="M13.794 65.5172H10.3457V68.9655H13.794V65.5172Z" fill="black"/>
<path d="M17.2412 65.5172H13.793V68.9655H17.2412V65.5172Z" fill="black"/>
<path d="M27.5869 65.5172H24.1387V68.9655H27.5869V65.5172Z" fill="black"/>
<path d="M34.4834 65.5172H31.0352V68.9655H34.4834V65.5172Z" fill="black"/>
<path d="M37.9307 65.5172H34.4824V68.9655H37.9307V65.5172Z" fill="black"/>
<path d="M41.3799 65.5172H37.9316V68.9655H41.3799V65.5172Z" fill="black"/>
<path d="M44.8272 65.5172H41.3789V68.9655H44.8272V65.5172Z" fill="black"/>
<path d="M55.1729 65.5172H51.7246V68.9655H55.1729V65.5172Z" fill="black"/>
<path d="M58.6202 65.5172H55.1719V68.9655H58.6202V65.5172Z" fill="black"/>
<path d="M62.0694 65.5172H58.6211V68.9655H62.0694V65.5172Z" fill="black"/>
<path d="M68.9659 65.5172H65.5176V68.9655H68.9659V65.5172Z" fill="black"/>
<path d="M72.4131 65.5172H68.9648V68.9655H72.4131V65.5172Z" fill="black"/>
<path d="M86.2061 65.5172H82.7578V68.9655H86.2061V65.5172Z" fill="black"/>
<path d="M89.6553 65.5172H86.207V68.9655H89.6553V65.5172Z" fill="black"/>
<path d="M96.5518 65.5172H93.1035V68.9655H96.5518V65.5172Z" fill="black"/>
<path d="M99.9991 65.5172H96.5508V68.9655H99.9991V65.5172Z" fill="black"/>
<path d="M3.44828 68.9656H0V72.4139H3.44828V68.9656Z" fill="black"/>
<path d="M6.89749 68.9656H3.44922V72.4139H6.89749V68.9656Z" fill="black"/>
<path d="M10.3448 68.9656H6.89648V72.4139H10.3448V68.9656Z" fill="black"/>
<path d="M24.1377 68.9656H20.6895V72.4139H24.1377V68.9656Z" fill="black"/>
<path d="M37.9307 68.9656H34.4824V72.4139H37.9307V68.9656Z" fill="black"/>
<path d="M41.3799 68.9656H37.9316V72.4139H41.3799V68.9656Z" fill="black"/>
<path d="M48.2764 68.9656H44.8281V72.4139H48.2764V68.9656Z" fill="black"/>
<path d="M51.7237 68.9656H48.2754V72.4139H51.7237V68.9656Z" fill="black"/>
<path d="M58.6202 68.9656H55.1719V72.4139H58.6202V68.9656Z" fill="black"/>
<path d="M62.0694 68.9656H58.6211V72.4139H62.0694V68.9656Z" fill="black"/>
<path d="M72.4131 68.9656H68.9648V72.4139H72.4131V68.9656Z" fill="black"/>
<path d="M75.8623 68.9656H72.4141V72.4139H75.8623V68.9656Z" fill="black"/>
<path d="M79.3096 68.9656H75.8613V72.4139H79.3096V68.9656Z" fill="black"/>
<path d="M82.7588 68.9656H79.3105V72.4139H82.7588V68.9656Z" fill="black"/>
<path d="M86.2061 68.9656H82.7578V72.4139H86.2061V68.9656Z" fill="black"/>
<path d="M99.9991 68.9656H96.5508V72.4139H99.9991V68.9656Z" fill="black"/>
<path d="M31.0342 72.4138H27.5859V75.8621H31.0342V72.4138Z" fill="black"/>
<path d="M34.4834 72.4138H31.0352V75.8621H34.4834V72.4138Z" fill="black"/>
<path d="M48.2764 72.4138H44.8281V75.8621H48.2764V72.4138Z" fill="black"/>
<path d="M55.1729 72.4138H51.7246V75.8621H55.1729V72.4138Z" fill="black"/>
<path d="M58.6202 72.4138H55.1719V75.8621H58.6202V72.4138Z" fill="black"/>
<path d="M65.5166 72.4138H62.0684V75.8621H65.5166V72.4138Z" fill="black"/>
<path d="M68.9659 72.4138H65.5176V75.8621H68.9659V72.4138Z" fill="black"/>
<path d="M72.4131 72.4138H68.9648V75.8621H72.4131V72.4138Z" fill="black"/>
<path d="M86.2061 72.4138H82.7578V75.8621H86.2061V72.4138Z" fill="black"/>
<path d="M93.1026 72.4138H89.6543V75.8621H93.1026V72.4138Z" fill="black"/>
<path d="M99.9991 72.4138H96.5508V75.8621H99.9991V72.4138Z" fill="black"/>
<path d="M3.44828 75.8621H0V79.3103H3.44828V75.8621Z" fill="black"/>
<path d="M6.89749 75.8621H3.44922V79.3103H6.89749V75.8621Z" fill="black"/>
<path d="M10.3448 75.8621H6.89648V79.3103H10.3448V75.8621Z" fill="black"/>
<path d="M13.794 75.8621H10.3457V79.3103H13.794V75.8621Z" fill="black"/>
<path d="M17.2412 75.8621H13.793V79.3103H17.2412V75.8621Z" fill="black"/>
<path d="M20.6905 75.8621H17.2422V79.3103H20.6905V75.8621Z" fill="black"/>
<path d="M24.1377 75.8621H20.6895V79.3103H24.1377V75.8621Z" fill="black"/>
<path d="M34.4834 75.8621H31.0352V79.3103H34.4834V75.8621Z" fill="black"/>
<path d="M37.9307 75.8621H34.4824V79.3103H37.9307V75.8621Z" fill="black"/>
<path d="M51.7237 75.8621H48.2754V79.3103H51.7237V75.8621Z" fill="black"/>
<path d="M55.1729 75.8621H51.7246V79.3103H55.1729V75.8621Z" fill="black"/>
<path d="M58.6202 75.8621H55.1719V79.3103H58.6202V75.8621Z" fill="black"/>
<path d="M62.0694 75.8621H58.6211V79.3103H62.0694V75.8621Z" fill="black"/>
<path d="M68.9659 75.8621H65.5176V79.3103H68.9659V75.8621Z" fill="black"/>
<path d="M72.4131 75.8621H68.9648V79.3103H72.4131V75.8621Z" fill="black"/>
<path d="M79.3096 75.8621H75.8613V79.3103H79.3096V75.8621Z" fill="black"/>
<path d="M86.2061 75.8621H82.7578V79.3103H86.2061V75.8621Z" fill="black"/>
<path d="M99.9991 75.8621H96.5508V79.3103H99.9991V75.8621Z" fill="black"/>
<path d="M3.44828 79.3103H0V82.7586H3.44828V79.3103Z" fill="black"/>
<path d="M24.1377 79.3103H20.6895V82.7586H24.1377V79.3103Z" fill="black"/>
<path d="M41.3799 79.3103H37.9316V82.7586H41.3799V79.3103Z" fill="black"/>
<path d="M62.0694 79.3103H58.6211V82.7586H62.0694V79.3103Z" fill="black"/>
<path d="M65.5166 79.3103H62.0684V82.7586H65.5166V79.3103Z" fill="black"/>
<path d="M68.9659 79.3103H65.5176V82.7586H68.9659V79.3103Z" fill="black"/>
<path d="M72.4131 79.3103H68.9648V82.7586H72.4131V79.3103Z" fill="black"/>
<path d="M86.2061 79.3103H82.7578V82.7586H86.2061V79.3103Z" fill="black"/>
<path d="M89.6553 79.3103H86.207V82.7586H89.6553V79.3103Z" fill="black"/>
<path d="M96.5518 79.3103H93.1035V82.7586H96.5518V79.3103Z" fill="black"/>
<path d="M99.9991 79.3103H96.5508V82.7586H99.9991V79.3103Z" fill="black"/>
<path d="M3.44828 82.7587H0V86.2069H3.44828V82.7587Z" fill="black"/>
<path d="M10.3448 82.7587H6.89648V86.2069H10.3448V82.7587Z" fill="black"/>
<path d="M13.794 82.7587H10.3457V86.2069H13.794V82.7587Z" fill="black"/>
<path d="M17.2412 82.7587H13.793V86.2069H17.2412V82.7587Z" fill="black"/>
<path d="M24.1377 82.7587H20.6895V86.2069H24.1377V82.7587Z" fill="black"/>
<path d="M31.0342 82.7587H27.5859V86.2069H31.0342V82.7587Z" fill="black"/>
<path d="M41.3799 82.7587H37.9316V86.2069H41.3799V82.7587Z" fill="black"/>
<path d="M44.8272 82.7587H41.3789V86.2069H44.8272V82.7587Z" fill="black"/>
<path d="M48.2764 82.7587H44.8281V86.2069H48.2764V82.7587Z" fill="black"/>
<path d="M51.7237 82.7587H48.2754V86.2069H51.7237V82.7587Z" fill="black"/>
<path d="M55.1729 82.7587H51.7246V86.2069H55.1729V82.7587Z" fill="black"/>
<path d="M65.5166 82.7587H62.0684V86.2069H65.5166V82.7587Z" fill="black"/>
<path d="M68.9659 82.7587H65.5176V86.2069H68.9659V82.7587Z" fill="black"/>
<path d="M72.4131 82.7587H68.9648V86.2069H72.4131V82.7587Z" fill="black"/>
<path d="M75.8623 82.7587H72.4141V86.2069H75.8623V82.7587Z" fill="black"/>
<path d="M79.3096 82.7587H75.8613V86.2069H79.3096V82.7587Z" fill="black"/>
<path d="M82.7588 82.7587H79.3105V86.2069H82.7588V82.7587Z" fill="black"/>
<path d="M86.2061 82.7587H82.7578V86.2069H86.2061V82.7587Z" fill="black"/>
<path d="M96.5518 82.7587H93.1035V86.2069H96.5518V82.7587Z" fill="black"/>
<path d="M3.44828 86.2069H0V89.6552H3.44828V86.2069Z" fill="black"/>
<path d="M10.3448 86.2069H6.89648V89.6552H10.3448V86.2069Z" fill="black"/>
<path d="M13.794 86.2069H10.3457V89.6552H13.794V86.2069Z" fill="black"/>
<path d="M17.2412 86.2069H13.793V89.6552H17.2412V86.2069Z" fill="black"/>
<path d="M24.1377 86.2069H20.6895V89.6552H24.1377V86.2069Z" fill="black"/>
<path d="M34.4834 86.2069H31.0352V89.6552H34.4834V86.2069Z" fill="black"/>
<path d="M41.3799 86.2069H37.9316V89.6552H41.3799V86.2069Z" fill="black"/>
<path d="M44.8272 86.2069H41.3789V89.6552H44.8272V86.2069Z" fill="black"/>
<path d="M58.6202 86.2069H55.1719V89.6552H58.6202V86.2069Z" fill="black"/>
<path d="M62.0694 86.2069H58.6211V89.6552H62.0694V86.2069Z" fill="black"/>
<path d="M75.8623 86.2069H72.4141V89.6552H75.8623V86.2069Z" fill="black"/>
<path d="M82.7588 86.2069H79.3105V89.6552H82.7588V86.2069Z" fill="black"/>
<path d="M89.6553 86.2069H86.207V89.6552H89.6553V86.2069Z" fill="black"/>
<path d="M93.1026 86.2069H89.6543V89.6552H93.1026V86.2069Z" fill="black"/>
<path d="M96.5518 86.2069H93.1035V89.6552H96.5518V86.2069Z" fill="black"/>
<path d="M3.44828 89.6552H0V93.1034H3.44828V89.6552Z" fill="black"/>
<path d="M10.3448 89.6552H6.89648V93.1034H10.3448V89.6552Z" fill="black"/>
<path d="M13.794 89.6552H10.3457V93.1034H13.794V89.6552Z" fill="black"/>
<path d="M17.2412 89.6552H13.793V93.1034H17.2412V89.6552Z" fill="black"/>
<path d="M24.1377 89.6552H20.6895V93.1034H24.1377V89.6552Z" fill="black"/>
<path d="M37.9307 89.6552H34.4824V93.1034H37.9307V89.6552Z" fill="black"/>
<path d="M41.3799 89.6552H37.9316V93.1034H41.3799V89.6552Z" fill="black"/>
<path d="M44.8272 89.6552H41.3789V93.1034H44.8272V89.6552Z" fill="black"/>
<path d="M58.6202 89.6552H55.1719V93.1034H58.6202V89.6552Z" fill="black"/>
<path d="M68.9659 89.6552H65.5176V93.1034H68.9659V89.6552Z" fill="black"/>
<path d="M72.4131 89.6552H68.9648V93.1034H72.4131V89.6552Z" fill="black"/>
<path d="M75.8623 89.6552H72.4141V93.1034H75.8623V89.6552Z" fill="black"/>
<path d="M82.7588 89.6552H79.3105V93.1034H82.7588V89.6552Z" fill="black"/>
<path d="M93.1026 89.6552H89.6543V93.1034H93.1026V89.6552Z" fill="black"/>
<path d="M96.5518 89.6552H93.1035V93.1034H96.5518V89.6552Z" fill="black"/>
<path d="M99.9991 89.6552H96.5508V93.1034H99.9991V89.6552Z" fill="black"/>
<path d="M3.44828 93.1034H0V96.5517H3.44828V93.1034Z" fill="black"/>
<path d="M24.1377 93.1034H20.6895V96.5517H24.1377V93.1034Z" fill="black"/>
<path d="M31.0342 93.1034H27.5859V96.5517H31.0342V93.1034Z" fill="black"/>
<path d="M34.4834 93.1034H31.0352V96.5517H34.4834V93.1034Z" fill="black"/>
<path d="M41.3799 93.1034H37.9316V96.5517H41.3799V93.1034Z" fill="black"/>
<path d="M44.8272 93.1034H41.3789V96.5517H44.8272V93.1034Z" fill="black"/>
<path d="M62.0694 93.1034H58.6211V96.5517H62.0694V93.1034Z" fill="black"/>
<path d="M65.5166 93.1034H62.0684V96.5517H65.5166V93.1034Z" fill="black"/>
<path d="M75.8623 93.1034H72.4141V96.5517H75.8623V93.1034Z" fill="black"/>
<path d="M79.3096 93.1034H75.8613V96.5517H79.3096V93.1034Z" fill="black"/>
<path d="M82.7588 93.1034H79.3105V96.5517H82.7588V93.1034Z" fill="black"/>
<path d="M89.6553 93.1034H86.207V96.5517H89.6553V93.1034Z" fill="black"/>
<path d="M96.5518 93.1034H93.1035V96.5517H96.5518V93.1034Z" fill="black"/>
<path d="M99.9991 93.1034H96.5508V96.5517H99.9991V93.1034Z" fill="black"/>
<path d="M3.44828 96.5518H0V100H3.44828V96.5518Z" fill="black"/>
<path d="M6.89749 96.5518H3.44922V100H6.89749V96.5518Z" fill="black"/>
<path d="M10.3448 96.5518H6.89648V100H10.3448V96.5518Z" fill="black"/>
<path d="M13.794 96.5518H10.3457V100H13.794V96.5518Z" fill="black"/>
<path d="M17.2412 96.5518H13.793V100H17.2412V96.5518Z" fill="black"/>
<path d="M20.6905 96.5518H17.2422V100H20.6905V96.5518Z" fill="black"/>
<path d="M24.1377 96.5518H20.6895V100H24.1377V96.5518Z" fill="black"/>
<path d="M41.3799 96.5518H37.9316V100H41.3799V96.5518Z" fill="black"/>
<path d="M55.1729 96.5518H51.7246V100H55.1729V96.5518Z" fill="black"/>
<path d="M62.0694 96.5518H58.6211V100H62.0694V96.5518Z" fill="black"/>
<path d="M65.5166 96.5518H62.0684V100H65.5166V96.5518Z" fill="black"/>
<path d="M68.9659 96.5518H65.5176V100H68.9659V96.5518Z" fill="black"/>
<path d="M72.4131 96.5518H68.9648V100H72.4131V96.5518Z" fill="black"/>
<path d="M79.3096 96.5518H75.8613V100H79.3096V96.5518Z" fill="black"/>
<path d="M86.2061 96.5518H82.7578V100H86.2061V96.5518Z" fill="black"/>
<path d="M89.6553 96.5518H86.207V100H89.6553V96.5518Z" fill="black"/>
<path d="M96.5518 96.5518H93.1035V100H96.5518V96.5518Z" fill="black"/>
</svg>
