<svg width="24" height="24" viewBox="0 0 24 24" fill="none" xmlns="http://www.w3.org/2000/svg">
<path d="M3.47546 9.5C4.52815 5.18693 8.24086 2 12.6594 2C17.8966 2 22.1421 6.47715 22.1421 12C22.1421 17.5228 17.8966 22 12.6594 22C8.83237 22 5.53483 19.6092 4.03655 16.1667" stroke="#5E35B1" stroke-linecap="round"/>
<path d="M13.8837 12.4999C13.8614 12.5263 13.8384 12.5537 13.8146 12.5819L11.9386 13.2859L11.8925 13.3032L15.957 10.9132C15.957 10.9132 15.957 10.9131 15.9571 10.9131C16.469 10.6126 16.7128 10.4958 16.8412 10.4488C16.8687 10.4388 16.8855 10.434 16.894 10.4318C16.8983 10.4307 16.9009 10.4302 16.9021 10.43L16.9033 10.4298L16.9036 10.4297L16.9039 10.4297L16.905 10.4296L16.9129 10.4292C16.9149 10.4292 16.9172 10.4292 16.9199 10.4291L14.5 11.8561L14.3529 11.9428L14.2429 12.0734L15.0079 12.7175L14.2429 12.0735L14.2428 12.0736L14.2425 12.0739L14.2413 12.0754L14.2364 12.0812L14.2172 12.104L14.1443 12.1905L13.8837 12.4999ZM9.0306 14.0753L9.12327 14.1296H9.0692L9.0306 14.0753Z" stroke="#5E35B1" stroke-width="2"/>
<path d="M2.14209 5.8667L3.49182 9.49063L7.11575 8.1409" stroke="#5E35B1" stroke-linecap="round" stroke-linejoin="round"/>
</svg>
